[
{"type":"header","version":"5.0.2","comment":"Export to JSON plugin for PHPMyAdmin"},
{"type":"database","name":"tcatcargo"},
{"type":"table","name":"thai_shipping_methods","database":"tcatcargo","data":
[
{"id":"1","title_th":"ไปรษณีย์ไทย (พัสดุ)","title_en":"ไปรษณีย์ไทย (พัสดุ)","title_cn":"ไปรษณีย์ไทย (พัสดุ)","address":"222","province_id":"64","amphur_id":"867","district_code":"810402","zipcode":"81120","image":"","type":"other","latitude":"","longitude":"","tel":"0000000000","refund":"0","charge":"99.00","shipping_rate_weight":"0","shipping_rate_cubic":"0","calculate_type":"weight","max_weight":"19.99","remark":"","status":"active","created_admin":null,"updated_admin":"Tucky","created_admin_id":null,"updated_admin_id":"51","created_at":"2016-11-11 15:07:32","updated_at":"2020-12-13 08:07:06","access":"all","api":"","delivery":"inactive","max_distance":"0.00","delivery_rate_km":"0.00","delivery_rate_kg":"0.00","delivery_rate_cubic":"0.00","min_price":"0","detail":""},
{"id":"2","title_th":"EMS","title_en":"EMS","title_cn":"EMS","address":"101","province_id":"3","amphur_id":"58","district_code":"120102","zipcode":"11000","image":"","type":"other","latitude":"","longitude":"","tel":"0000000000","refund":"1","charge":"99.00","shipping_rate_weight":"0","shipping_rate_cubic":"0","calculate_type":"weight","max_weight":"20.00","remark":"","status":"active","created_admin":null,"updated_admin":"Tucky","created_admin_id":null,"updated_admin_id":"51","created_at":"2016-11-11 15:07:54","updated_at":"2020-12-13 08:03:51","access":"all","api":"","delivery":"inactive","max_distance":"0.00","delivery_rate_km":"0.00","delivery_rate_kg":"0.00","delivery_rate_cubic":"0.00","min_price":"0","detail":""},
{"id":"3","title_th":"ปิดใช้งาน1","title_en":"ATT SKYBOX (BTS)","title_cn":"ATT SKYBOX (BTS)","address":"BTS","province_id":"3","amphur_id":"58","district_code":"120104","zipcode":"11000","image":"","type":"other","latitude":"","longitude":"","tel":"0800031122","refund":"0","charge":"99.00","shipping_rate_weight":"0","shipping_rate_cubic":"0","calculate_type":"weight","max_weight":"5.00","remark":"ATT SKYBOX (BTS)","status":"inactive","created_admin":null,"updated_admin":"bellshipping","created_admin_id":null,"updated_admin_id":"2","created_at":"2016-11-11 15:08:09","updated_at":"2017-12-20 10:17:00","access":"all","api":"","delivery":"inactive","max_distance":"0.00","delivery_rate_km":"0.00","delivery_rate_kg":"0.00","delivery_rate_cubic":"0.00","min_price":"0","detail":""},
{"id":"4","title_th":"Kerry Express","title_en":"Kerry Express","title_cn":"Kerry Express","address":"222","province_id":"64","amphur_id":"867","district_code":"810402","zipcode":"81120","image":"","type":"other","latitude":"","longitude":"","tel":"0000000000","refund":"0","charge":"99.00","shipping_rate_weight":"0","shipping_rate_cubic":"0","calculate_type":"weight_size","max_weight":"25.00","remark":"","status":"active","created_admin":null,"updated_admin":"Tucky","created_admin_id":null,"updated_admin_id":"51","created_at":"2016-11-11 15:08:20","updated_at":"2020-12-13 08:05:26","access":"all","api":"","delivery":"inactive","max_distance":"0.00","delivery_rate_km":"0.00","delivery_rate_kg":"0.00","delivery_rate_cubic":"0.00","min_price":"0","detail":""},
{"id":"5","title_th":"ขนส่งเอกชนนิ่ม","title_en":"ขนส่งเอกชนนิ่ม","title_cn":"ขนส่งเอกชนนิ่ม","address":"123","province_id":"1","amphur_id":"1","district_code":"100101","zipcode":"10200","image":"","type":"other","latitude":"","longitude":"","tel":"0123465464","refund":"0","charge":"99.00","shipping_rate_weight":"0","shipping_rate_cubic":"0","calculate_type":"area","max_weight":"9999.00","remark":"","status":"active","created_admin":null,"updated_admin":"Tucky","created_admin_id":null,"updated_admin_id":"51","created_at":"2016-11-11 15:08:59","updated_at":"2020-12-13 08:05:57","access":"all","api":"","delivery":"inactive","max_distance":"0.00","delivery_rate_km":"0.00","delivery_rate_kg":"0.00","delivery_rate_cubic":"0.00","min_price":"0","detail":""},
{"id":"6","title_th":"รถบริษัท นนทบุรี ช่วงค่ำ ( 18.00-24.00 )","title_en":"รถบริษัท นนทบุรี","title_cn":"รถบริษัท นนทบุรี","address":"20\/46","province_id":"3","amphur_id":"58","district_code":"120104","zipcode":"11000","image":"","type":"other","latitude":"13.876462","longitude":"100.491274","tel":"0800023636","refund":"1","charge":"350.00","shipping_rate_weight":"0","shipping_rate_cubic":"0","calculate_type":"fixed","max_weight":"9999.00","remark":"","status":"inactive","created_admin":null,"updated_admin":"DIAMOND","created_admin_id":null,"updated_admin_id":"191","created_at":"2016-11-11 15:09:09","updated_at":"2020-05-06 17:53:35","access":"staff_only","api":"","delivery":"inactive","max_distance":"250.00","delivery_rate_km":"0.00","delivery_rate_kg":"0.00","delivery_rate_cubic":"0.00","min_price":"0","detail":""},
{"id":"7","title_th":"จุดรับสินค้า นนทบุรี","title_en":"จุดรับสินค้า นนทบุรี","title_cn":"จุดรับสินค้า นนทบุรี","address":"บริษัท ทีซีเอที จำกัด 20\/46 หมู่ 1","province_id":"3","amphur_id":"58","district_code":"120104","zipcode":"11000","image":"storage\/app\/droppoints\/190709-023116.jpg","type":"droppoint","latitude":"","longitude":"","tel":"0800032233","refund":"0","charge":"0.00","shipping_rate_weight":"0","shipping_rate_cubic":"0","calculate_type":"fixed","max_weight":"9999.00","remark":"","status":"active","created_admin":null,"updated_admin":"DIAMOND","created_admin_id":null,"updated_admin_id":"191","created_at":"2016-11-11 15:09:21","updated_at":"2020-07-26 02:45:40","access":"staff_only","api":"","delivery":"inactive","max_distance":"0.00","delivery_rate_km":"0.00","delivery_rate_kg":"0.00","delivery_rate_cubic":"0.00","min_price":"0","detail":"เปิดให้บริการทุกวัน เวลา 09.00 - 24.00น\r\n\r\n( เฉพาะกรณีพิเศษ เจ้าหน้าที่ผู้ออกบิลเท่านั้น )"},
{"id":"8","title_th":"จุดรับสินค้า(02) คลองลัดมะยม","title_en":"จุดรับสินค้า(02) สมาคมปักษ์ใต้","title_cn":"จุดรับสินค้า(02) สมาคมปักษ์ใต้","address":"Park Avenueเลขที่ 92 ถนนกาญจนาภิเษก","province_id":"1","amphur_id":"19","district_code":"101905","zipcode":"10170","image":"storage\/app\/droppoints\/200508-112441.jpg","type":"droppoint","latitude":"13.764102","longitude":"100.40783","tel":"0613925444","refund":"0","charge":"0.00","shipping_rate_weight":"5","shipping_rate_cubic":"900","calculate_type":"fixed","max_weight":"9999.00","remark":"","status":"active","created_admin":null,"updated_admin":"Tucky","created_admin_id":null,"updated_admin_id":"51","created_at":"2016-11-11 15:09:30","updated_at":"2020-05-27 09:33:12","access":"all","api":"","delivery":"inactive","max_distance":"0.00","delivery_rate_km":"0.00","delivery_rate_kg":"0.00","delivery_rate_cubic":"0.00","min_price":"0","detail":"เปิดให้บริการทุกวัน เวลา 09.00-24.00น"},
{"id":"9","title_th":"จุดรับสินค้า(03) รังสิต คลองสอง","title_en":"จุดรับสินค้า(03) รังสิต","title_cn":"จุดรับสินค้า(03) รังสิต","address":"749 ถนนรังสิต-นครนายก คลองสอง","province_id":"4","amphur_id":"68","district_code":"130302","zipcode":"12130","image":"storage\/app\/droppoints\/200508-112527.jpg","type":"droppoint","latitude":"13.992723","longitude":"100.652098","tel":"0632179000","refund":"0","charge":"0.00","shipping_rate_weight":"5","shipping_rate_cubic":"900","calculate_type":"fixed","max_weight":"9999.00","remark":"","status":"active","created_admin":null,"updated_admin":"Tucky","created_admin_id":null,"updated_admin_id":"51","created_at":"2016-11-11 15:09:39","updated_at":"2020-10-16 10:45:14","access":"all","api":"","delivery":"inactive","max_distance":"0.00","delivery_rate_km":"0.00","delivery_rate_kg":"0.00","delivery_rate_cubic":"0.00","min_price":"0","detail":"เปิดให้บริการทุกวัน เวลา 09.00-24.00 น."},
{"id":"10","title_th":"จุดรับสินค้า(04) บางใหญ่ (ใหม่)","title_en":"จุดรับสินค้า(04) บางใหญ่","title_cn":"จุดรับสินค้า(04) บางใหญ่","address":"W6 B3-4 เลขที่83 หมู่6","province_id":"3","amphur_id":"60","district_code":"120304","zipcode":"11140","image":"storage\/app\/droppoints\/181112-055054.jpg","type":"droppoint","latitude":"13.879497","longitude":"100.407007","tel":"0897459966","refund":"0","charge":"0.00","shipping_rate_weight":"5","shipping_rate_cubic":"900","calculate_type":"fixed","max_weight":"9999.00","remark":"","status":"active","created_admin":null,"updated_admin":"stickermos","created_admin_id":null,"updated_admin_id":"404","created_at":"2016-11-11 15:09:48","updated_at":"2019-08-26 15:45:34","access":"all","api":"","delivery":"inactive","max_distance":"0.00","delivery_rate_km":"0.00","delivery_rate_kg":"0.00","delivery_rate_cubic":"0.00","min_price":"0","detail":"เปิดให้บริการทุกวัน เวลา 10.30-17.00น"},
{"id":"11","title_th":"จุดรับสินค้า(05) โชคชัย4","title_en":"จุดรับสินค้า(05) โชคชัย4","title_cn":"จุดรับสินค้า(05) โชคชัย4","address":"เลขที่ 417 ซ.49 ถ.โชคชัย4","province_id":"1","amphur_id":"38","district_code":"103801","zipcode":"10230","image":"storage\/app\/droppoints\/181112-055112.jpg","type":"droppoint","latitude":"13.814357","longitude":"100.596138","tel":"0897465555","refund":"0","charge":"0.00","shipping_rate_weight":"5","shipping_rate_cubic":"900","calculate_type":"fixed","max_weight":"9999.00","remark":"","status":"active","created_admin":null,"updated_admin":"stickermos","created_admin_id":null,"updated_admin_id":"404","created_at":"2016-11-11 15:09:57","updated_at":"2019-08-26 15:48:00","access":"all","api":"","delivery":"inactive","max_distance":"0.00","delivery_rate_km":"0.00","delivery_rate_kg":"0.00","delivery_rate_cubic":"0.00","min_price":"0","detail":"เปิดให้บริการทุกวัน  เวลา 9.00-18.00 น."},
{"id":"12","title_th":"จุดรับสินค้า(06) เชียงใหม่","title_en":"จุดรับสินค้า(06) เชียงใหม่","title_cn":"จุดรับสินค้า(06) เชียงใหม่","address":"คุณหนึ่ง เลขที่231\/15  ถ.ห้วยแก้ว","province_id":"38","amphur_id":"568","district_code":"500108","zipcode":"50200","image":"storage\/app\/droppoints\/180421-033544.jpg","type":"droppoint","latitude":"18.806323149355","longitude":"98.9583742618561","tel":"0823071111","refund":"0","charge":"0.00","shipping_rate_weight":"7","shipping_rate_cubic":"1200","calculate_type":"fixed","max_weight":"9999.00","remark":"","status":"active","created_admin":null,"updated_admin":"stickermos","created_admin_id":null,"updated_admin_id":"404","created_at":"2016-11-11 15:10:06","updated_at":"2019-08-26 15:48:38","access":"all","api":"","delivery":"inactive","max_distance":"0.00","delivery_rate_km":"0.00","delivery_rate_kg":"0.00","delivery_rate_cubic":"0.00","min_price":"0","detail":"เปิดให้บริการเวลา 09.00-18.00น (จ-ส)"},
{"id":"13","title_th":"จุดรับสินค้า(07) บางนา","title_en":"จุดรับสินค้า(07) บางนา(อุดมสุข ซ.39)","title_cn":"จุดรับสินค้า(07) บางนา(อุดมสุข ซ.39)","address":"อุดมสุข60  เลขที่ 1 ถนนอุดมสุข 60","province_id":"1","amphur_id":"32","district_code":"103202","zipcode":"10250","image":"storage\/app\/droppoints\/210113-120747.jpg","type":"droppoint","latitude":"13.677216","longitude":"100.641453","tel":"0899776543","refund":"0","charge":"0.00","shipping_rate_weight":"5","shipping_rate_cubic":"900","calculate_type":"fixed","max_weight":"9999.00","remark":"","status":"active","created_admin":null,"updated_admin":"Tucky","created_admin_id":null,"updated_admin_id":"51","created_at":"2016-11-11 15:10:17","updated_at":"2021-01-13 12:07:47","access":"all","api":"","delivery":"inactive","max_distance":"0.00","delivery_rate_km":"0.00","delivery_rate_kg":"0.00","delivery_rate_cubic":"0.00","min_price":"0","detail":"เปิดให้บริการทุกวัน เวลา 09.00-24.00น (สาขาอัตโนมัติ)\r\nเบอร์ส่วนกลาง : 092 262 7000"},
{"id":"16","title_th":"จุดรับสินค้า(08) ภูเก็ต","title_en":"จุดรับสินค้า(08) ภูเก็ต","title_cn":"จุดรับสินค้า(08) ภูเก็ต","address":"เลขที่71\/7 ม.2 ถ.เจ้าฟ้าตะวันตก","province_id":"66","amphur_id":"880","district_code":"830105","zipcode":"83000","image":"storage\/app\/droppoints\/180421-033242.jpg","type":"droppoint","latitude":"7.875311","longitude":"98.363606","tel":"0926609111","refund":"0","charge":"0.00","shipping_rate_weight":"7","shipping_rate_cubic":"1200","calculate_type":"fixed","max_weight":"9999.00","remark":"","status":"active","created_admin":null,"updated_admin":"bellshipping","created_admin_id":null,"updated_admin_id":"2","created_at":"2016-11-11 15:10:49","updated_at":"2019-04-17 09:52:52","access":"all","api":"","delivery":"inactive","max_distance":"0.00","delivery_rate_km":"0.00","delivery_rate_kg":"0.00","delivery_rate_cubic":"0.00","min_price":"0","detail":"เปิดให้บริการเวลา 09.00-18.00น (จ-ส)"},
{"id":"17","title_th":"จุดรับสินค้า(09) รามอินทรา","title_en":"จุดรับสินค้า(09) รามอินทรา","title_cn":"จุดรับสินค้า(09) รามอินทรา","address":"เลขที่313 (The compound ) ถ.พระยาสุเรนทร์","province_id":"1","amphur_id":"46","district_code":"104603","zipcode":"10510","image":"storage\/app\/droppoints\/201209-031417.jpg","type":"droppoint","latitude":"13.821984","longitude":"100.699584","tel":"0926602777","refund":"0","charge":"0.00","shipping_rate_weight":"5","shipping_rate_cubic":"900","calculate_type":"fixed","max_weight":"9999.00","remark":"","status":"active","created_admin":null,"updated_admin":"Tucky","created_admin_id":null,"updated_admin_id":"51","created_at":"2016-11-11 15:10:58","updated_at":"2020-12-09 15:14:17","access":"all","api":"","delivery":"inactive","max_distance":"0.00","delivery_rate_km":"0.00","delivery_rate_kg":"0.00","delivery_rate_cubic":"0.00","min_price":"0","detail":"เปิดให้บริการทุกวัน เวลา 09.00-24.00 น.\r\nส่วนกลาง โทร. : 0922627000"},
{"id":"18","title_th":"จุดรับสินค้า(10) สายไหม","title_en":"จุดรับสินค้า(10) สายไหม","title_cn":"จุดรับสินค้า(10) สายไหม","address":"โครงการ I PARK ห้อง B7 ซอยสายไหม 58","province_id":"1","amphur_id":"42","district_code":"104201","zipcode":"10220","image":"storage\/app\/droppoints\/200804-081933.jpg","type":"droppoint","latitude":"13.920640","longitude":"100.663330","tel":"0614170111","refund":"0","charge":"0.00","shipping_rate_weight":"5","shipping_rate_cubic":"900","calculate_type":"fixed","max_weight":"9999.00","remark":"","status":"active","created_admin":null,"updated_admin":"Tucky","created_admin_id":null,"updated_admin_id":"51","created_at":"2016-11-11 15:11:07","updated_at":"2020-08-05 12:55:19","access":"all","api":"","delivery":"inactive","max_distance":"0.00","delivery_rate_km":"0.00","delivery_rate_kg":"0.00","delivery_rate_cubic":"0.00","min_price":"0","detail":"เปิดให้บริการทุกวัน เวลา 09.00-18.00น"},
{"id":"19","title_th":"จุดรับสินค้า(11) โคราช","title_en":"จุดรับสินค้า(11) โคราช","title_cn":"จุดรับสินค้า(11) โคราช","address":"390\/2 ถนน มิตรภาพ ซอยมิตรภาพ 15 (ใกล้ตลาดเซฟวัน)","province_id":"19","amphur_id":"215","district_code":"300101","zipcode":"30000","image":"storage\/app\/droppoints\/200805-052704.jpg","type":"droppoint","latitude":"14.949474","longitude":"102.044675","tel":"0800889009","refund":"0","charge":"0.00","shipping_rate_weight":"7","shipping_rate_cubic":"1200","calculate_type":"fixed","max_weight":"9999.00","remark":"","status":"active","created_admin":null,"updated_admin":"Tucky","created_admin_id":null,"updated_admin_id":"51","created_at":"2016-11-11 15:11:16","updated_at":"2020-08-07 11:29:35","access":"all","api":"","delivery":"inactive","max_distance":"0.00","delivery_rate_km":"0.00","delivery_rate_kg":"0.00","delivery_rate_cubic":"0.00","min_price":"0","detail":"เปิดให้บริการเวลา 09.00-18.00น (จ-ส)"},
{"id":"20","title_th":"ปิดใช้งาน4","title_en":"จุดรับสินค้า(12) สมุทรสาคร","title_cn":"จุดรับสินค้า(12) สมุทรสาคร","address":"เลขที่64\/90 หมู่8 ถ.พระราม2","province_id":"59","amphur_id":"814","district_code":"740110","zipcode":"74000","image":"storage\/app\/droppoints\/170825-040516.jpg","type":"droppoint","latitude":"13.5614816","longitude":"100.2780905","tel":"0613925444","refund":"0","charge":"0.00","shipping_rate_weight":"6","shipping_rate_cubic":"1000","calculate_type":"fixed","max_weight":"9999.00","remark":"","status":"inactive","created_admin":null,"updated_admin":"bellshipping","created_admin_id":null,"updated_admin_id":"2","created_at":"2016-11-11 15:11:24","updated_at":"2018-02-10 18:32:24","access":"all","api":"","delivery":"inactive","max_distance":"0.00","delivery_rate_km":"0.00","delivery_rate_kg":"0.00","delivery_rate_cubic":"0.00","min_price":"0","detail":"เปิดให้บริการทุกวัน เวลา 09.00-18.00น"},
{"id":"21","title_th":"จุดรับสินค้า(13) ชลบุรี","title_en":"จุดรับสินค้า(13) ชลบุรี","title_cn":"จุดรับสินค้า(13) ชลบุรี","address":"112\/508 ถ.พระยาสัจจา (หน้าซอยนารถมนตเสรี 24)","province_id":"11","amphur_id":"136","district_code":"200116","zipcode":"20000","image":"storage\/app\/droppoints\/210131-060402.jpg","type":"droppoint","latitude":"13.341145","longitude":"100.9601719","tel":"0922586000","refund":"0","charge":"0.00","shipping_rate_weight":"7","shipping_rate_cubic":"1200","calculate_type":"fixed","max_weight":"9999.00","remark":"","status":"active","created_admin":null,"updated_admin":"Tucky","created_admin_id":null,"updated_admin_id":"51","created_at":"2016-12-02 18:02:09","updated_at":"2021-01-31 18:04:03","access":"all","api":"","delivery":"inactive","max_distance":"0.00","delivery_rate_km":"0.00","delivery_rate_kg":"0.00","delivery_rate_cubic":"0.00","min_price":"0","detail":"เปิดทำการ จันทร์ - เสาร์ เวลา 09.00 - 24.00 น.\r\nเบอร์ส่วนกลาง : 092 262 7000"},
{"id":"22","title_th":"รถบริษัท (ฟรีค่าขนส่ง)","title_en":"รถบริษัท (ฟรีค่าขนส่ง)","title_cn":"รถบริษัท (ฟรีค่าขนส่ง)","address":"20\/46","province_id":"3","amphur_id":"58","district_code":"120104","zipcode":"11000","image":"","type":"delivery","latitude":"13.876462","longitude":"100.491274","tel":"0800023636","refund":"0","charge":"0.00","shipping_rate_weight":"0","shipping_rate_cubic":"0","calculate_type":"fixed","max_weight":"999999.99","remark":"","status":"active","created_admin":null,"updated_admin":"bellshipping","created_admin_id":null,"updated_admin_id":"2","created_at":"2016-12-02 18:03:23","updated_at":"2021-02-12 12:41:21","access":"staff_only","api":"","delivery":"inactive","max_distance":"150.00","delivery_rate_km":"0.00","delivery_rate_kg":"0.00","delivery_rate_cubic":"0.00","min_price":"0","detail":""},
{"id":"23","title_th":"รถบริษัท (กทม)","title_en":"รถบริษัท กรุงเทพและปริมณฑล","title_cn":"รถบริษัท กรุงเทพและปริมณฑล","address":"เลขที่20\/46 ซ.เลี่ยงเมืองนนทบุรี15แยก10 ถ.เลื่ยงเมืองนนทบุรี","province_id":"3","amphur_id":"58","district_code":"120104","zipcode":"11000","image":"","type":"delivery","latitude":"13.876462","longitude":"100.491274","tel":"0800023636","refund":null,"charge":"550.00","shipping_rate_weight":"0","shipping_rate_cubic":"0","calculate_type":"fixed","max_weight":"9999.00","remark":"","status":"active","created_admin":null,"updated_admin":"Tucky","created_admin_id":null,"updated_admin_id":"51","created_at":"2017-02-14 17:36:15","updated_at":"2020-12-13 08:04:20","access":"all","api":"","delivery":"inactive","max_distance":"150.00","delivery_rate_km":"0.00","delivery_rate_kg":"0.00","delivery_rate_cubic":"0.00","min_price":"0","detail":""},
{"id":"24","title_th":"ไปรษณีย์ไทย (ลงทะเบียน)","title_en":"ไปรษณีย์ไทย (ลงทะเบียน)","title_cn":"ไปรษณีย์ไทย (ลงทะเบียน)","address":"1","province_id":"3","amphur_id":"58","district_code":"120104","zipcode":"11000","image":"","type":"other","latitude":"","longitude":"","tel":"0123456798","refund":null,"charge":"99.00","shipping_rate_weight":"0","shipping_rate_cubic":"0","calculate_type":"weight","max_weight":"1.80","remark":"","status":"active","created_admin":null,"updated_admin":"Tucky","created_admin_id":null,"updated_admin_id":"51","created_at":"2017-02-20 16:27:29","updated_at":"2020-12-13 08:06:35","access":"all","api":"","delivery":"inactive","max_distance":"0.00","delivery_rate_km":"0.00","delivery_rate_kg":"0.00","delivery_rate_cubic":"0.00","min_price":"0","detail":""},
{"id":"25","title_th":"จุดรับสินค้า(14) นครสวรรค์","title_en":"จุดรับสินค้า นครสวรรค์","title_cn":"จุดรับสินค้า นครสวรรค์","address":"คุณปกรณ์ ศรีนาราง เลขที่55\/91 ถ.สวรรค์วิถี","province_id":"47","amphur_id":"683","district_code":"600101","zipcode":"60000","image":"storage\/app\/droppoints\/180421-032737.jpg","type":"droppoint","latitude":"15.704173","longitude":"100.135073","tel":"0632272000","refund":null,"charge":"0.00","shipping_rate_weight":"7","shipping_rate_cubic":"1200","calculate_type":"fixed","max_weight":"9999.00","remark":"","status":"active","created_admin":null,"updated_admin":"stickermos","created_admin_id":null,"updated_admin_id":"404","created_at":"2017-02-27 17:01:50","updated_at":"2019-08-26 16:00:25","access":"all","api":"","delivery":"inactive","max_distance":"0.00","delivery_rate_km":"0.00","delivery_rate_kg":"0.00","delivery_rate_cubic":"0.00","min_price":"0","detail":"เปิดให้บริการเวลา 09.00-18.00น (จ-ส)"},
{"id":"26","title_th":"จุดรับสินค้า(15) นครปฐม","title_en":"จุดรับสินค้า(15) นครปฐม","title_cn":"จุดรับสินค้า(15) นครปฐม","address":"โครงการเพชรไผ่เตย 369   ซอยยิงเป้าใต้เท้า (ตรงข้ามสโมสรฟุตบอลยูไนเต็ด)","province_id":"58","amphur_id":"807","district_code":"730103","zipcode":"73000","image":"storage\/app\/droppoints\/200820-113942.jpg","type":"droppoint","latitude":"13.813012","longitude":"100.069852","tel":"0614170111","refund":null,"charge":"0.00","shipping_rate_weight":"5","shipping_rate_cubic":"900","calculate_type":"fixed","max_weight":"9999.00","remark":"บอรโทรส่วนกลาง 092-262-7000","status":"active","created_admin":null,"updated_admin":"Tucky","created_admin_id":null,"updated_admin_id":"51","created_at":"2017-02-27 17:03:12","updated_at":"2020-10-30 21:22:49","access":"all","api":"","delivery":"inactive","max_distance":"0.00","delivery_rate_km":"0.00","delivery_rate_kg":"0.00","delivery_rate_cubic":"0.00","min_price":"0","detail":"เปิดให้บริการ จันทร์ - เสาร์ เวลา 09.00-24.00 น.\r\nปิดทำการ ทุกวันอาทิตย์"},
{"id":"27","title_th":"TCAT Express","title_en":"TCAT Express (เฉพาะกรุงเทพฯ และปริมณฑล)","title_cn":"TCAT Express (เฉพาะกรุงเทพฯ และปริมณฑล)","address":"1","province_id":"3","amphur_id":"58","district_code":"120104","zipcode":"11000","image":null,"type":"other","latitude":"","longitude":"","tel":"0123456978","refund":null,"charge":"0.00","shipping_rate_weight":"0","shipping_rate_cubic":"0","calculate_type":"area","max_weight":"9999.00","remark":"","status":"active","created_admin":null,"updated_admin":"DIAMOND","created_admin_id":null,"updated_admin_id":"191","created_at":"2017-03-10 18:03:39","updated_at":"2020-06-30 22:23:40","access":"all","api":"","delivery":"inactive","max_distance":"150.00","delivery_rate_km":"0.00","delivery_rate_kg":"0.00","delivery_rate_cubic":"0.00","min_price":"0","detail":""},
{"id":"28","title_th":"จุดรับสินค้า(16) เชียงราย","title_en":"จุดรับสินค้า(16) เชียงราย (ถนน ธนาลัย)","title_cn":"จุดรับสินค้า(16) เชียงราย (ถนน ธนาลัย)","address":"197\/6  ซอย สุภาคำ   ถนนพหลโยธิน","province_id":"45","amphur_id":"657","district_code":"570102","zipcode":"57000","image":"storage\/app\/droppoints\/200527-094253.jpg","type":"droppoint","latitude":"19.892876","longitude":"99.830854","tel":"0632257000","refund":null,"charge":"0.00","shipping_rate_weight":"7","shipping_rate_cubic":"1200","calculate_type":"fixed","max_weight":"9999.00","remark":"","status":"active","created_admin":null,"updated_admin":"Benyapornshipping","created_admin_id":null,"updated_admin_id":"178","created_at":"2017-03-30 15:46:59","updated_at":"2020-08-18 15:53:27","access":"all","api":"","delivery":"inactive","max_distance":"0.00","delivery_rate_km":"0.00","delivery_rate_kg":"0.00","delivery_rate_cubic":"0.00","min_price":"0","detail":"เปิดให้บริการเวลา 09.00-18.00น (จ-ส)"},
{"id":"29","title_th":"อื่นๆ","title_en":"อื่นๆ","title_cn":"อื่นๆ","address":"1","province_id":"3","amphur_id":"58","district_code":"120104","zipcode":"11000","image":null,"type":"other","latitude":"","longitude":"","tel":"0123456789","refund":null,"charge":"0.00","shipping_rate_weight":"0","shipping_rate_cubic":"0","calculate_type":"fixed","max_weight":"9999.00","remark":"","status":"active","created_admin":null,"updated_admin":null,"created_admin_id":null,"updated_admin_id":null,"created_at":"2017-04-20 15:04:56","updated_at":"2017-07-25 10:37:20","access":"staff_only","api":"","delivery":"inactive","max_distance":"0.00","delivery_rate_km":"0.00","delivery_rate_kg":"0.00","delivery_rate_cubic":"0.00","min_price":"0","detail":""},
{"id":"30","title_th":"โกดังจีนส่งสินค้าคืนร้านในจีน","title_en":"ไทย-จีน","title_cn":"ไทย-จีน","address":"1","province_id":"3","amphur_id":"58","district_code":"120104","zipcode":"11000","image":null,"type":"droppoint","latitude":"","longitude":"","tel":"0123456798","refund":null,"charge":"0.00","shipping_rate_weight":"0","shipping_rate_cubic":"0","calculate_type":"fixed","max_weight":"9999.00","remark":"","status":"inactive","created_admin":null,"updated_admin":"DIAMOND","created_admin_id":null,"updated_admin_id":"191","created_at":"2017-04-20 15:06:02","updated_at":"2020-05-06 17:54:40","access":"staff_only","api":"","delivery":"inactive","max_distance":"0.00","delivery_rate_km":"0.00","delivery_rate_kg":"0.00","delivery_rate_cubic":"0.00","min_price":"0","detail":""},
{"id":"31","title_th":"เก็บเงินปลายทาง","title_en":"เก็บเงินปลายทาง","title_cn":"เก็บเงินปลายทาง","address":"1","province_id":"3","amphur_id":"58","district_code":"120104","zipcode":"11000","image":null,"type":"other","latitude":"","longitude":"","tel":"0123456789","refund":null,"charge":"350.00","shipping_rate_weight":"0","shipping_rate_cubic":"0","calculate_type":"fixed","max_weight":"9999.00","remark":"","status":"active","created_admin":null,"updated_admin":"Tucky","created_admin_id":null,"updated_admin_id":"51","created_at":"2017-04-20 15:57:07","updated_at":"2020-12-13 08:04:59","access":"all","api":"","delivery":"inactive","max_distance":"0.00","delivery_rate_km":"0.00","delivery_rate_kg":"0.00","delivery_rate_cubic":"0.00","min_price":"0","detail":""},
{"id":"32","title_th":"China Trip Tour","title_en":"China Trip Tour","title_cn":"China Trip Tour","address":"1","province_id":"3","amphur_id":"58","district_code":"120104","zipcode":"11000","image":null,"type":"other","latitude":"","longitude":"","tel":"0123456979","refund":null,"charge":"0.00","shipping_rate_weight":"0","shipping_rate_cubic":"0","calculate_type":"fixed","max_weight":"0.00","remark":"","status":"inactive","created_admin":null,"updated_admin":"DIAMOND","created_admin_id":null,"updated_admin_id":"191","created_at":"2017-04-20 15:59:00","updated_at":"2020-05-06 17:49:01","access":"staff_only","api":"","delivery":"inactive","max_distance":"0.00","delivery_rate_km":"0.00","delivery_rate_kg":"0.00","delivery_rate_cubic":"0.00","min_price":"0","detail":""},
{"id":"33","title_th":"จุดรับสินค้า(17) สรงประภา","title_en":"จุดรับสินค้า(17) สรงประภา","title_cn":"จุดรับสินค้า(17) สรงประภา","address":"เลขที่60 ถ.สรงประภา","province_id":"1","amphur_id":"36","district_code":"103602","zipcode":"10210","image":"storage\/app\/droppoints\/180421-032314.jpg","type":"droppoint","latitude":"13.933173","longitude":"100.566451","tel":"0632179000","refund":null,"charge":"0.00","shipping_rate_weight":"5","shipping_rate_cubic":"900","calculate_type":"fixed","max_weight":"9999.00","remark":"","status":"inactive","created_admin":null,"updated_admin":"bellshipping","created_admin_id":null,"updated_admin_id":"2","created_at":"2017-04-20 16:02:00","updated_at":"2019-04-17 09:54:38","access":"all","api":"","delivery":"inactive","max_distance":"0.00","delivery_rate_km":"0.00","delivery_rate_kg":"0.00","delivery_rate_cubic":"0.00","min_price":"0","detail":"เปิดให้บริการทุกวัน เวลา 09.00-18.00น"},
{"id":"34","title_th":"จุดรับสินค้า(18) อุดรธานี","title_en":"จุดรับสินค้า(18) อุดรธานี","title_cn":"จุดรับสินค้า(18) อุดรธานี","address":"เลขที่ 111,113 ถนนอดุลยเดช","province_id":"29","amphur_id":"421","district_code":"410101","zipcode":"41000","image":"storage\/app\/droppoints\/181112-055231.jpg","type":"droppoint","latitude":"17.411038","longitude":"102.799972","tel":"0632275000","refund":null,"charge":"0.00","shipping_rate_weight":"7","shipping_rate_cubic":"1200","calculate_type":"fixed","max_weight":"9999.00","remark":"","status":"active","created_admin":null,"updated_admin":"stickermos","created_admin_id":null,"updated_admin_id":"404","created_at":"2017-04-20 16:03:59","updated_at":"2019-08-26 16:01:20","access":"all","api":"","delivery":"inactive","max_distance":"0.00","delivery_rate_km":"0.00","delivery_rate_kg":"0.00","delivery_rate_cubic":"0.00","min_price":"0","detail":"เปิดให้บริการ จันทร์-เสาร์  เวลา 09.00-18.00น"},
{"id":"37","title_th":"** ยังไม่ได้เลือก **","title_en":"** ยังไม่ได้เลือก **","title_cn":"** ยังไม่ได้เลือก **","address":"1","province_id":"64","amphur_id":"867","district_code":"810401","zipcode":"81120","image":null,"type":"other","latitude":"","longitude":"","tel":"0123456789","refund":null,"charge":"0.00","shipping_rate_weight":"0","shipping_rate_cubic":"0","calculate_type":"fixed","max_weight":"999.00","remark":"","status":"inactive","created_admin":null,"updated_admin":"admin","created_admin_id":null,"updated_admin_id":"1","created_at":"2017-04-24 17:54:20","updated_at":"2018-02-10 23:10:41","access":"staff_only","api":"","delivery":"inactive","max_distance":"0.00","delivery_rate_km":"0.00","delivery_rate_kg":"0.00","delivery_rate_cubic":"0.00","min_price":"0","detail":""},
{"id":"39","title_th":"จุดรับสินค้า(02) คลองลัดมะยม (ฟรี)","title_en":"จุดรับสินค้า(02) สมาคมปักษ์ใต้ (ฟรี)","title_cn":"จุดรับสินค้า(02) สมาคมปักษ์ใต้ (ฟรี)","address":"37\/43","province_id":"1","amphur_id":"48","district_code":"104802","zipcode":"10170","image":"storage\/app\/droppoints\/181112-055042.jpg","type":"droppoint","latitude":"13.763717","longitude":"100.401215","tel":"0613925444","refund":null,"charge":"0.00","shipping_rate_weight":"0","shipping_rate_cubic":"0","calculate_type":"fixed","max_weight":"9999.00","remark":"","status":"inactive","created_admin":null,"updated_admin":"Tucky","created_admin_id":null,"updated_admin_id":"51","created_at":"2017-05-02 13:25:00","updated_at":"2020-12-29 08:48:27","access":"staff_only","api":"","delivery":"inactive","max_distance":"0.00","delivery_rate_km":"0.00","delivery_rate_kg":"0.00","delivery_rate_cubic":"0.00","min_price":"0","detail":"เปิดบริการทุกวัน เวลา 9.00 -18.00  น."},
{"id":"40","title_th":"จุดรับสินค้า(19) ระยอง","title_en":"จุดรับสินค้า(19) ระยอง","title_cn":"จุดรับสินค้า(19) ระยอง","address":"เลขที่ 2\/15 ถนนจันทอุดม","province_id":"12","amphur_id":"151","district_code":"210101","zipcode":"21000","image":"storage\/app\/droppoints\/200726-032047.jpg","type":"droppoint","latitude":"12.683879","longitude":"101.275617","tel":"0632679000","refund":null,"charge":"0.00","shipping_rate_weight":"7","shipping_rate_cubic":"1200","calculate_type":"fixed","max_weight":"9999.00","remark":"","status":"active","created_admin":null,"updated_admin":"Tucky","created_admin_id":null,"updated_admin_id":"51","created_at":"2017-05-03 16:43:11","updated_at":"2020-07-26 15:20:47","access":"all","api":"","delivery":"inactive","max_distance":"0.00","delivery_rate_km":"0.00","delivery_rate_kg":"0.00","delivery_rate_cubic":"0.00","min_price":"0","detail":"เปิดให้บริการเวลา 09.00- 24.00น (จ-ส)"},
{"id":"42","title_th":"เก็บเงินปลายทาง(ฟรีค่าขนส่ง)","title_en":"เก็บเงินปลายทาง(ฟรีค่าขนส่ง)","title_cn":"เก็บเงินปลายทาง(ฟรีค่าขนส่ง)","address":"เลขที่20\/46 ซ.เลี่ยงเมืองนนทบุรี15แยก10 ถ.เลื่ยงเมืองนนทบุรี","province_id":"3","amphur_id":"58","district_code":"120104","zipcode":"11000","image":null,"type":"other","latitude":"","longitude":"","tel":"0800032233","refund":null,"charge":"0.00","shipping_rate_weight":"0","shipping_rate_cubic":"0","calculate_type":"fixed","max_weight":"99999.00","remark":"","status":"active","created_admin":null,"updated_admin":"bellshipping","created_admin_id":null,"updated_admin_id":"2","created_at":"2017-05-08 09:46:05","updated_at":"2020-08-07 18:11:40","access":"staff_only","api":"","delivery":"inactive","max_distance":"0.00","delivery_rate_km":"0.00","delivery_rate_kg":"0.00","delivery_rate_cubic":"0.00","min_price":"0","detail":""},
{"id":"43","title_th":"จุดรับสินค้า(20) ขอนแก่น","title_en":"จุดรับสินค้า(20) ขอนแก่น","title_cn":"จุดรับสินค้า(20) ขอนแก่น","address":"561\/19 ถ.หน้าเมือง","province_id":"28","amphur_id":"393","district_code":"400101","zipcode":"40000","image":"storage\/app\/droppoints\/181112-055314.jpg","type":"droppoint","latitude":"16.415737","longitude":"102.832576","tel":"0632679000","refund":null,"charge":"0.00","shipping_rate_weight":"7","shipping_rate_cubic":"1200","calculate_type":"fixed","max_weight":"9999.00","remark":"","status":"active","created_admin":null,"updated_admin":"bellshipping","created_admin_id":null,"updated_admin_id":"2","created_at":"2017-05-16 14:45:31","updated_at":"2020-01-14 14:01:09","access":"all","api":"","delivery":"inactive","max_distance":"50.00","delivery_rate_km":"0.00","delivery_rate_kg":"0.00","delivery_rate_cubic":"0.00","min_price":"100","detail":"เปิดให้บริการเวลา 09.00-18.00น (จ-ส)"},
{"id":"45","title_th":"ปิดใช้งาน5","title_en":"รถบริษัท (พิเศษ)","title_cn":"รถบริษัท (พิเศษ)","address":"เลขที่20\/46 ซ.เลี่ยงเมืองนนทบุรี15แยก10 ถ.เลื่ยงเมืองนนทบุรี","province_id":"3","amphur_id":"58","district_code":"120104","zipcode":"11000","image":null,"type":"droppoint","latitude":"","longitude":"","tel":"0800032233","refund":null,"charge":"6000.00","shipping_rate_weight":"0","shipping_rate_cubic":"0","calculate_type":"fixed","max_weight":"9999.00","remark":"รถบริษัท (พิเศษ)","status":"inactive","created_admin":null,"updated_admin":"mnmanow","created_admin_id":null,"updated_admin_id":"112","created_at":"2017-05-26 16:13:32","updated_at":"2019-01-19 14:48:08","access":"staff_only","api":"","delivery":"inactive","max_distance":"0.00","delivery_rate_km":"0.00","delivery_rate_kg":"0.00","delivery_rate_cubic":"0.00","min_price":"0","detail":""},
{"id":"47","title_th":"จุดรับสินค้า(06) เชียงใหม่(ส่งถึงบ้าน)","title_en":"จุดรับสินค้า(06) เชียงใหม่ (ส่งถึงบ้าน)","title_cn":"จุดรับสินค้า(06) เชียงใหม่ (ส่งถึงบ้าน)","address":"คุณหนึ่ง เลขที่231\/15  ถ.ห้วยแก้ว","province_id":"38","amphur_id":"568","district_code":"500108","zipcode":"50200","image":"storage\/app\/droppoints\/170825-040645.jpg","type":"delivery","latitude":"18.806364","longitude":"98.9585275","tel":"0823071111","refund":null,"charge":"0.00","shipping_rate_weight":"9","shipping_rate_cubic":"1600","calculate_type":"fixed","max_weight":"9999.00","remark":"","status":"active","created_admin":null,"updated_admin":"bellshipping","created_admin_id":null,"updated_admin_id":"2","created_at":"2017-06-15 09:14:11","updated_at":"2019-04-17 09:56:39","access":"all","api":"","delivery":"inactive","max_distance":"50.00","delivery_rate_km":"0.00","delivery_rate_kg":"0.00","delivery_rate_cubic":"0.00","min_price":"100","detail":"ลำพูน   : เฉพาะ อำเภอเมือง \r\nลำปาง : เฉพาะ อำเภอเมือง"},
{"id":"50","title_th":"TCAT Express (เชียงใหม่ ชลบุรี)","title_en":"TCAT Express (เชียงใหม่ ชลบุรี)","title_cn":"TCAT Express (เชียงใหม่ ชลบุรี)","address":"1","province_id":"3","amphur_id":"58","district_code":"120104","zipcode":"11000","image":null,"type":"other","latitude":"","longitude":"","tel":"0000000000","refund":null,"charge":"59.00","shipping_rate_weight":"0","shipping_rate_cubic":"0","calculate_type":"area","max_weight":"9999.00","remark":"","status":"inactive","created_admin":null,"updated_admin":"Tucky","created_admin_id":null,"updated_admin_id":"51","created_at":"2017-06-26 11:23:28","updated_at":"2019-03-10 09:15:29","access":"all","api":"","delivery":"inactive","max_distance":"0.00","delivery_rate_km":"0.00","delivery_rate_kg":"0.00","delivery_rate_cubic":"0.00","min_price":"0","detail":""},
{"id":"51","title_th":"ชลบุรี (ส่งถึงบ้าน)","title_en":"จุดรับสินค้า(13) ชลบุรี (ส่งถึงบ้าน)","title_cn":"จุดรับสินค้า(13) ชลบุรี (ส่งถึงบ้าน)","address":"112\/508 ถ.พระยาสัจจา","province_id":"11","amphur_id":"136","district_code":"200116","zipcode":"20130","image":"storage\/app\/droppoints\/180421-032827.jpg","type":"delivery","latitude":"13.341145","longitude":"100.9601719","tel":"0632315000","refund":null,"charge":"0.00","shipping_rate_weight":"9","shipping_rate_cubic":"1600","calculate_type":"fixed","max_weight":"9999.00","remark":"","status":"active","created_admin":null,"updated_admin":"bellshipping","created_admin_id":null,"updated_admin_id":"2","created_at":"2017-06-26 12:01:59","updated_at":"2020-06-08 09:11:44","access":"all","api":"","delivery":"inactive","max_distance":"50.00","delivery_rate_km":"0.00","delivery_rate_kg":"0.00","delivery_rate_cubic":"0.00","min_price":"100","detail":"ฉะเชิงเทรา \r\nเฉพาะ อำเภอ เมือง  อำเภอ บ้านโพธิ์  อำเภอ บางประกง เท่านั้นค่ะ เริ่มบริการตั้งแต่ :  วันจันทร์ที่ 3 ธันวาคม 2561 เป็นต้นไป"},
{"id":"53","title_th":"ปิดใช้งาน3","title_en":"จุดรับสินค้า(19) ระยอง (ส่งถึงบ้าน)","title_cn":"จุดรับสินค้า(19) ระยอง (ส่งถึงบ้าน)","address":"เลขที่ 75\/3 หมู่บ้านโมเดิร์นไลฟ์ ถนนราชชุมพล","province_id":"12","amphur_id":"151","district_code":"210102","zipcode":"21000","image":"storage\/app\/droppoints\/170825-040413.jpg","type":"delivery","latitude":"12.687194","longitude":"101.269056","tel":"0632104000","refund":null,"charge":"0.00","shipping_rate_weight":"8","shipping_rate_cubic":"1200","calculate_type":"fixed","max_weight":"9999.00","remark":"จุดรับสินค้า(19) ระยอง (ส่งถึงบ้าน)","status":"inactive","created_admin":null,"updated_admin":"bellshipping","created_admin_id":null,"updated_admin_id":"2","created_at":"2017-06-26 12:03:55","updated_at":"2017-12-20 10:18:02","access":"staff_only","api":"","delivery":"inactive","max_distance":"50.00","delivery_rate_km":"0.00","delivery_rate_kg":"0.00","delivery_rate_cubic":"0.00","min_price":"0","detail":""},
{"id":"56","title_th":"สินค้าส่งกลับร้านค้า","title_en":"สินค้าแบรนด์ส่งกลับร้านค้า","title_cn":"สินค้าแบรนด์ส่งกลับร้านค้า","address":"กวางโจว","province_id":"3","amphur_id":"58","district_code":"120104","zipcode":"11000","image":"storage\/app\/droppoints\/170725-021608.jpg","type":"droppoint","latitude":"","longitude":"","tel":"0800002545","refund":null,"charge":"0.00","shipping_rate_weight":"0","shipping_rate_cubic":"0","calculate_type":"fixed","max_weight":"9999.00","remark":"","status":"active","created_admin":null,"updated_admin":"Benyapornshipping","created_admin_id":null,"updated_admin_id":"178","created_at":"2017-07-25 14:06:44","updated_at":"2020-05-09 09:40:09","access":"staff_only","api":"","delivery":"inactive","max_distance":"0.00","delivery_rate_km":"0.00","delivery_rate_kg":"0.00","delivery_rate_cubic":"0.00","min_price":"0","detail":""},
{"id":"60","title_th":"ปิดใช้งาน2","title_en":"จุดรับสินค้า(08) ภูเก็ต (ส่งถึงบ้าน)","title_cn":"จุดรับสินค้า(08) ภูเก็ต (ส่งถึงบ้าน)","address":"เลขที่71\/7 ม.2 ถ.เจ้าฟ้าตะวันตก","province_id":"66","amphur_id":"880","district_code":"830105","zipcode":"83000","image":"storage\/app\/droppoints\/170825-040714.jpg","type":"delivery","latitude":"7.875311","longitude":"98.363606","tel":"0926609111","refund":null,"charge":"0.00","shipping_rate_weight":"8","shipping_rate_cubic":"1200","calculate_type":"fixed","max_weight":"9999.00","remark":"จุดรับสินค้า(08) ภูเก็ต (ส่งถึงบ้าน)","status":"inactive","created_admin":null,"updated_admin":"bellshipping","created_admin_id":null,"updated_admin_id":"2","created_at":"2017-08-01 14:33:23","updated_at":"2017-12-20 10:17:33","access":"staff_only","api":"","delivery":"inactive","max_distance":"50.00","delivery_rate_km":"0.00","delivery_rate_kg":"0.00","delivery_rate_cubic":"0.00","min_price":"100","detail":""},
{"id":"64","title_th":"จุดรับสินค้า(21) โบ๊เบ๊","title_en":"จุดรับสินค้า(21) โบ๊เบ๊","title_cn":"จุดรับสินค้า(21) โบ๊เบ๊","address":"เลขที่ 299 โครงการ ONE@BOBAE ถนนดำรงรักษ์","province_id":"1","amphur_id":"8","district_code":"100803","zipcode":"10100","image":"storage\/app\/droppoints\/180421-032051.jpg","type":"droppoint","latitude":"13.754703","longitude":"100.513935","tel":"0922478000","refund":null,"charge":"0.00","shipping_rate_weight":"5","shipping_rate_cubic":"900","calculate_type":"fixed","max_weight":"9999.00","remark":"","status":"inactive","created_admin":null,"updated_admin":"bellshipping","created_admin_id":null,"updated_admin_id":"2","created_at":"2017-09-04 13:15:43","updated_at":"2019-04-17 09:55:18","access":"all","api":"","delivery":"inactive","max_distance":"0.00","delivery_rate_km":"0.00","delivery_rate_kg":"0.00","delivery_rate_cubic":"0.00","min_price":"0","detail":"เปิดให้บริการทุกวัน เวลา 09.00-18.00น"},
{"id":"68","title_th":"จุดรับสินค้า(22) หาดใหญ่","title_en":"จุดรับสินค้า(22) หาดใหญ่","title_cn":"จุดรับสินค้า(22) หาดใหญ่","address":"เลขที่ 28 ถ.โชติวิทยะกุล 5 (ตลาดนัดอาเซียน)","province_id":"70","amphur_id":"928","district_code":"901101","zipcode":"90110","image":"storage\/app\/droppoints\/180421-032017.jpg","type":"droppoint","latitude":"6.994840","longitude":"100.485655","tel":"0922507000","refund":null,"charge":"0.00","shipping_rate_weight":"7","shipping_rate_cubic":"1200","calculate_type":"fixed","max_weight":"9999.00","remark":"","status":"active","created_admin":"admin","updated_admin":"bellshipping","created_admin_id":"1","updated_admin_id":"2","created_at":"2017-10-04 10:10:23","updated_at":"2019-04-17 09:55:29","access":"all","api":"","delivery":"inactive","max_distance":"0.00","delivery_rate_km":"0.00","delivery_rate_kg":"0.00","delivery_rate_cubic":"0.00","min_price":"0","detail":"เปิดให้บริการเวลา 09.00-18.00น (จ-ส)"},
{"id":"69","title_th":"จุดรับสินค้า(23) เชียงใหม่ 2 (รวมโชคมอลล์)","title_en":null,"title_cn":null,"address":"รวมโชคมอลล์ (ห้อง E 28 ) เลขที่ 189 หมู่ 6","province_id":"38","amphur_id":"568","district_code":"500114","zipcode":"50000","image":"storage\/app\/droppoints\/200508-112832.jpg","type":"droppoint","latitude":"18.824479","longitude":"99.01057","tel":"0632257000","refund":null,"charge":"0.00","shipping_rate_weight":"7","shipping_rate_cubic":"1200","calculate_type":"fixed","max_weight":"9999.00","remark":"","status":"active","created_admin":"admin","updated_admin":"Tucky","created_admin_id":"1","updated_admin_id":"51","created_at":"2018-02-14 14:30:23","updated_at":"2020-05-27 09:41:42","access":"all","api":"","delivery":"inactive","max_distance":"0.00","delivery_rate_km":"0.00","delivery_rate_kg":"0.00","delivery_rate_cubic":"0.00","min_price":"0","detail":"เปิดทำการ จันทร์ - เสาร์ เวลา 9.00 - 24.00 น."},
{"id":"71","title_th":"จุดรับสินค้า(12) บางบอน","title_en":null,"title_cn":null,"address":"167  ถ.บางขุนเทียน  ซ.บางขุนเทียน 7","province_id":"1","amphur_id":"50","district_code":"105001","zipcode":"10150","image":"storage\/app\/droppoints\/200523-015351.jpg","type":"droppoint","latitude":"13.667773","longitude":"100.428229","tel":"0613925444","refund":null,"charge":"0.00","shipping_rate_weight":"5","shipping_rate_cubic":"900","calculate_type":"fixed","max_weight":"9999.00","remark":"","status":"active","created_admin":"bellshipping","updated_admin":"Tucky","created_admin_id":"2","updated_admin_id":"51","created_at":"2018-02-26 09:27:31","updated_at":"2020-05-27 09:36:15","access":"all","api":"","delivery":"inactive","max_distance":"0.00","delivery_rate_km":"0.00","delivery_rate_kg":"0.00","delivery_rate_cubic":"0.00","min_price":"0","detail":"เปิดให้บริการทุกวันเวลา 9.00 - 24.00 น."},
{"id":"74","title_th":"จุดรับสินค้า(24) ภูเก็ต (สาขาถลาง)","title_en":null,"title_cn":null,"address":"57\/9  หมู่ 1","province_id":"66","amphur_id":"882","district_code":"830301","zipcode":"83110","image":"storage\/app\/droppoints\/180421-031646.jpg","type":"droppoint","latitude":"8.032811","longitude":"98.333554","tel":"0948686166","refund":null,"charge":"0.00","shipping_rate_weight":"7","shipping_rate_cubic":"1200","calculate_type":"fixed","max_weight":"9999.00","remark":"","status":"inactive","created_admin":"mayny","updated_admin":"bellshipping","created_admin_id":"53","updated_admin_id":"2","created_at":"2018-02-28 13:17:44","updated_at":"2019-04-17 09:55:53","access":"all","api":"","delivery":"inactive","max_distance":"0.00","delivery_rate_km":"0.00","delivery_rate_kg":"0.00","delivery_rate_cubic":"0.00","min_price":"0","detail":"เปิดให้บริการเวลา 10.00-21.30 น. (จ-ศ,อา) หยุดวันเสาร์"},
{"id":"77","title_th":"จุดรับสินค้า(17) ม. รังสิต เมืองเอก","title_en":null,"title_cn":null,"address":"182\/3 ซอย พหลโยธิน 87","province_id":"4","amphur_id":"71","district_code":"130601","zipcode":"12130","image":"storage\/app\/droppoints\/181112-055221.jpg","type":"droppoint","latitude":"13.967359","longitude":"100.608309","tel":"0632179000","refund":null,"charge":"0.00","shipping_rate_weight":"5","shipping_rate_cubic":"900","calculate_type":"fixed","max_weight":"9999.00","remark":"","status":"active","created_admin":"Tucky","updated_admin":"Tucky","created_admin_id":"51","updated_admin_id":"51","created_at":"2018-04-02 10:06:04","updated_at":"2019-11-01 08:49:22","access":"all","api":"","delivery":"inactive","max_distance":"0.00","delivery_rate_km":"0.00","delivery_rate_kg":"0.00","delivery_rate_cubic":"0.00","min_price":"0","detail":"เปิดให้บริการทุกวัน เวลา 09.00-18.00น"},
{"id":"79","title_th":"จุดรับสินค้า(08) ภูเก็ต (ส่งถึงบ้าน)","title_en":null,"title_cn":null,"address":"เลขที่71\/7 ม.2 ถ.เจ้าฟ้าตะวันตก","province_id":"66","amphur_id":"880","district_code":"830105","zipcode":"83000","image":null,"type":"delivery","latitude":"7.875311","longitude":"98.363606","tel":"0926609111","refund":null,"charge":"0.00","shipping_rate_weight":"9","shipping_rate_cubic":"1600","calculate_type":"fixed","max_weight":"9999.00","remark":"","status":"active","created_admin":"Tucky","updated_admin":"bellshipping","created_admin_id":"51","updated_admin_id":"2","created_at":"2018-05-15 09:52:29","updated_at":"2019-04-17 09:56:47","access":"all","api":"","delivery":"inactive","max_distance":"50.00","delivery_rate_km":"0.00","delivery_rate_kg":"0.00","delivery_rate_cubic":"0.00","min_price":"100","detail":""},
{"id":"81","title_th":"จุดรับสินค้า(11) โคราช (ส่งถึงบ้าน)","title_en":null,"title_cn":null,"address":"เลขที่757\/5 โครงการแผ่นดินทองชิตี้","province_id":"19","amphur_id":"215","district_code":"300107","zipcode":"30000","image":null,"type":"delivery","latitude":"14.949128","longitude":"102.047081","tel":"0626027111","refund":null,"charge":"0.00","shipping_rate_weight":"9","shipping_rate_cubic":"1600","calculate_type":"fixed","max_weight":"9999.00","remark":"","status":"active","created_admin":"cherrynuttaporn","updated_admin":"bellshipping","created_admin_id":"304","updated_admin_id":"2","created_at":"2018-08-20 09:42:16","updated_at":"2019-04-17 09:56:57","access":"all","api":"","delivery":"inactive","max_distance":"50.00","delivery_rate_km":"0.00","delivery_rate_kg":"0.00","delivery_rate_cubic":"0.00","min_price":"100","detail":""},
{"id":"82","title_th":"จุดรับสินค้า(11)โคราช (ส่งถึงบ้าน)","title_en":null,"title_cn":null,"address":"เลขที่757\/5 โครงการแผ่นดินทองชิตี้","province_id":"19","amphur_id":"215","district_code":"300107","zipcode":"30000","image":null,"type":"delivery","latitude":"14.95366","longitude":"98.9585275","tel":"0823071111","refund":null,"charge":"0.00","shipping_rate_weight":"9","shipping_rate_cubic":"1600","calculate_type":"fixed","max_weight":"9999.00","remark":"เขตที่อยู่ในรายการที่สามารถจัดส่งถึงบ้านได้\r\n\r\nอำเภอเมืองนครราชสีมา\r\nอำเภอโชคชัย\r\nอำเภอโนนไทย\r\nอำเภอโนนสูง\r\nอำเภอขามทะเลสอ\r\nอำเภอจักราช\r\nอำเภอปักธงชัย\r\nอำเภอพระทองคำ\r\nอำเภอวังน้ำเขียว\r\nอำเภอสูงเนิน\r\nอำเภอหนองบุญมาก\r\nอำเภอสีคิ้ว\r\nอำเภอปากช่อง","status":"inactive","created_admin":"Tucky","updated_admin":"bellshipping","created_admin_id":"51","updated_admin_id":"2","created_at":"2018-08-20 09:44:20","updated_at":"2019-04-17 09:57:04","access":"all","api":"","delivery":"inactive","max_distance":"50.00","delivery_rate_km":"0.00","delivery_rate_kg":"0.00","delivery_rate_cubic":"0.00","min_price":"100","detail":"เปิดให้บริการเวลา 09.00-18.00น (จ-ส)"},
{"id":"83","title_th":"จุดรับสินค้า(13) ฉะเชิงเทรา (ส่งถึงบ้าน)","title_en":null,"title_cn":null,"address":"เลขที่168\/22 หมู่ 1 ซ.นารถมนตเสวี30 ถ.พระยาสัจจา","province_id":"11","amphur_id":"148","district_code":null,"zipcode":"20130","image":null,"type":"delivery","latitude":"13.340785","longitude":"100.964951","tel":"0625906000","refund":null,"charge":"0.00","shipping_rate_weight":"9","shipping_rate_cubic":"1600","calculate_type":"fixed","max_weight":"9999.00","remark":"","status":"inactive","created_admin":"Tucky","updated_admin":"bellshipping","created_admin_id":"51","updated_admin_id":"2","created_at":"2018-11-27 14:47:26","updated_at":"2019-04-17 09:57:12","access":"staff_only","api":"","delivery":"inactive","max_distance":"50.00","delivery_rate_km":"0.00","delivery_rate_kg":"0.00","delivery_rate_cubic":"0.00","min_price":"100","detail":"หมายเหตุ เฉพาะ อำเภอ เมือง , อำเภอ บ้านโพธิ์ , อำเภอ บางประกง"},
{"id":"85","title_th":"รถบริษัท   จ.ลำปาง (ส่งถึงบ้าน)","title_en":null,"title_cn":null,"address":"จ.ลำปาง ส่งถึงบ้าน","province_id":"40","amphur_id":"603","district_code":"520102","zipcode":"52000","image":null,"type":"delivery","latitude":"18.273868","longitude":"99.458730","tel":"0823071111","refund":null,"charge":"0.00","shipping_rate_weight":"8","shipping_rate_cubic":"1200","calculate_type":"fixed","max_weight":"9999.00","remark":"","status":"inactive","created_admin":"Tucky","updated_admin":"bellshipping","created_admin_id":"51","updated_admin_id":"2","created_at":"2018-12-07 10:23:39","updated_at":"2019-03-12 10:50:37","access":"staff_only","api":"","delivery":"inactive","max_distance":"50.00","delivery_rate_km":"0.00","delivery_rate_kg":"0.00","delivery_rate_cubic":"0.00","min_price":"100","detail":""},
{"id":"88","title_th":"รถบริษัท  จ.ลำพูน  (ส่งถึงบ้าน)","title_en":null,"title_cn":null,"address":"จ.ลำพูน ส่งถึงบ้าน","province_id":"40","amphur_id":"607","district_code":"520506","zipcode":"51150","image":null,"type":"delivery","latitude":"18.578483","longitude":"98.966727","tel":"0823071111","refund":null,"charge":"0.00","shipping_rate_weight":"8","shipping_rate_cubic":"1200","calculate_type":"fixed","max_weight":"9999.00","remark":"","status":"inactive","created_admin":"Tucky","updated_admin":"bellshipping","created_admin_id":"51","updated_admin_id":"2","created_at":"2018-12-07 10:27:51","updated_at":"2019-03-12 10:50:47","access":"staff_only","api":"","delivery":"inactive","max_distance":"50.00","delivery_rate_km":"0.00","delivery_rate_kg":"0.00","delivery_rate_cubic":"0.00","min_price":"100","detail":""},
{"id":"89","title_th":"รถบริษัท อยุธยา (ส่งถึงบ้าน)","title_en":null,"title_cn":null,"address":"อยุธยา (ส่งถึงบ้าน)","province_id":"5","amphur_id":"74","district_code":"140103","zipcode":"13000","image":null,"type":"delivery","latitude":"14.353381","longitude":"100.559333","tel":"0800032233","refund":null,"charge":"0.00","shipping_rate_weight":"8","shipping_rate_cubic":"1200","calculate_type":"fixed","max_weight":"9999.00","remark":"","status":"active","created_admin":"Tucky","updated_admin":"Tucky","created_admin_id":"51","updated_admin_id":"51","created_at":"2018-12-07 10:41:48","updated_at":"2018-12-11 10:23:48","access":"staff_only","api":"","delivery":"inactive","max_distance":"50.00","delivery_rate_km":"0.00","delivery_rate_kg":"0.00","delivery_rate_cubic":"0.00","min_price":"100","detail":"เฉพาะ อ.เมือง อ.วังน้อย อ.บางปะอิน"},
{"id":"90","title_th":"รถบริษัท สระบุรี (ส่งถึงบ้าน)","title_en":null,"title_cn":null,"address":"สระบุรี (ส่งถึงบ้าน)","province_id":"10","amphur_id":"123","district_code":"190101","zipcode":"18000","image":null,"type":"delivery","latitude":"14.539409","longitude":"100.893645","tel":"0800032233","refund":null,"charge":"0.00","shipping_rate_weight":"8","shipping_rate_cubic":"1200","calculate_type":"fixed","max_weight":"9999.00","remark":"","status":"active","created_admin":"Tucky","updated_admin":"Tucky","created_admin_id":"51","updated_admin_id":"51","created_at":"2018-12-07 10:44:27","updated_at":"2018-12-11 10:23:57","access":"staff_only","api":"","delivery":"inactive","max_distance":"50.00","delivery_rate_km":"0.00","delivery_rate_kg":"0.00","delivery_rate_cubic":"0.00","min_price":"100","detail":"เฉพาะ อ. เมือง อ.มวกเหล็ก อ.แก่งคอย"},
{"id":"93","title_th":"ระยอง (ส่งถึงบ้าน)","title_en":null,"title_cn":null,"address":"เลขที่ 75\/3 หมู่บ้านโมเดิร์นไลฟ์ ถนนราชชุมพล","province_id":"12","amphur_id":"151","district_code":"210102","zipcode":"21000","image":null,"type":"delivery","latitude":"12.687194","longitude":"101.269056","tel":"0630791000","refund":null,"charge":"0.00","shipping_rate_weight":"9","shipping_rate_cubic":"1600","calculate_type":"fixed","max_weight":"9999.00","remark":"","status":"active","created_admin":"cherrynuttaporn","updated_admin":"bellshipping","created_admin_id":"304","updated_admin_id":"2","created_at":"2019-01-15 11:29:46","updated_at":"2020-05-08 11:18:10","access":"all","api":"","delivery":"inactive","max_distance":"50.00","delivery_rate_km":"0.00","delivery_rate_kg":"0.00","delivery_rate_cubic":"0.00","min_price":"100","detail":"ระยอง : เฉพาะ อ.เมือง \/ อ.บ้านฉาง \/ อ.ปลวกแดง"},
{"id":"95","title_th":"รถบริษัท  ช่วงค่ำ ( 20.00-23.00 ) เฉพาะพื้นที่ กรุงเทพฯ นนทบุรี ปทุมธานี","title_en":null,"title_cn":null,"address":"เลขที่20\/46 ซ.เลี่ยงเมืองนนทบุรี15แยก10 ถ.เลื่ยงเมืองนนทบุรี","province_id":"3","amphur_id":"58","district_code":"120104","zipcode":"11000","image":null,"type":"delivery","latitude":"13.876462","longitude":"100.491274","tel":"0800002545","refund":null,"charge":"550.00","shipping_rate_weight":"0","shipping_rate_cubic":"0","calculate_type":"fixed","max_weight":"9999.00","remark":"","status":"active","created_admin":"DIAMOND","updated_admin":"Tucky","created_admin_id":"191","updated_admin_id":"51","created_at":"2019-01-15 21:01:14","updated_at":"2020-12-13 08:04:42","access":"all","api":"","delivery":"inactive","max_distance":"70.00","delivery_rate_km":"0.00","delivery_rate_kg":"0.00","delivery_rate_cubic":"0.00","min_price":"0","detail":"ชำระบิลภายใน 18.00 น."},
{"id":"96","title_th":"รถบริษัท (ฟรีค่าขนส่ง)ช่วงค่ำ ( 18.00-24.00 )","title_en":null,"title_cn":null,"address":"20\/46","province_id":"3","amphur_id":"58","district_code":"120104","zipcode":"11000","image":null,"type":"delivery","latitude":"13.876462","longitude":"100.491274","tel":"0800023636","refund":null,"charge":"0.00","shipping_rate_weight":"0","shipping_rate_cubic":"0","calculate_type":"fixed","max_weight":"999999.99","remark":"","status":"inactive","created_admin":"mnmanow","updated_admin":"DIAMOND","created_admin_id":"112","updated_admin_id":"191","created_at":"2019-01-15 22:36:00","updated_at":"2020-05-06 17:53:17","access":"staff_only","api":"","delivery":"inactive","max_distance":"246.00","delivery_rate_km":"0.00","delivery_rate_kg":"0.00","delivery_rate_cubic":"0.00","min_price":"0","detail":""},
{"id":"99","title_th":"รถบริษัท (ในจังหวัดนนทบุรี )","title_en":null,"title_cn":null,"address":"20\/46","province_id":"3","amphur_id":"58","district_code":"120104","zipcode":"11000","image":null,"type":"delivery","latitude":"13.876462","longitude":"100.491274","tel":"0800023636","refund":null,"charge":"350.00","shipping_rate_weight":"0","shipping_rate_cubic":"0","calculate_type":"fixed","max_weight":"9999.00","remark":"","status":"active","created_admin":"mnmanow","updated_admin":"Tucky","created_admin_id":"112","updated_admin_id":"51","created_at":"2019-01-15 22:38:03","updated_at":"2020-12-13 08:04:31","access":"staff_only","api":"0","delivery":"inactive","max_distance":"20.00","delivery_rate_km":"0.00","delivery_rate_kg":"0.00","delivery_rate_cubic":"0.00","min_price":"0","detail":""},
{"id":"101","title_th":"ปิดใช้งาน6","title_en":null,"title_cn":null,"address":"1","province_id":"3","amphur_id":"58","district_code":"120104","zipcode":"11000","image":null,"type":"droppoint","latitude":"","longitude":"","tel":"0123456978","refund":null,"charge":"59.00","shipping_rate_weight":"0","shipping_rate_cubic":"0","calculate_type":"area","max_weight":"99999.00","remark":"","status":"inactive","created_admin":"mnmanow","updated_admin":"mnmanow","created_admin_id":"112","updated_admin_id":"112","created_at":"2019-01-15 22:41:21","updated_at":"2019-01-19 14:48:14","access":"staff_only","api":"","delivery":"inactive","max_distance":"0.00","delivery_rate_km":"0.00","delivery_rate_kg":"0.00","delivery_rate_cubic":"0.00","min_price":"0","detail":""},
{"id":"102","title_th":"Express ช่วงค่ำ ( 18.00-24.00 )","title_en":null,"title_cn":null,"address":"1","province_id":"3","amphur_id":"58","district_code":"120104","zipcode":"11000","image":null,"type":"other","latitude":"","longitude":"","tel":"0123456978","refund":null,"charge":"0.00","shipping_rate_weight":"0","shipping_rate_cubic":"0","calculate_type":"area","max_weight":"9999.00","remark":"","status":"inactive","created_admin":"mnmanow","updated_admin":"DIAMOND","created_admin_id":"112","updated_admin_id":"191","created_at":"2019-01-15 22:43:35","updated_at":"2020-05-31 21:54:46","access":"staff_only","api":"","delivery":"inactive","max_distance":"300.00","delivery_rate_km":"0.00","delivery_rate_kg":"0.00","delivery_rate_cubic":"0.00","min_price":"0","detail":""},
{"id":"104","title_th":"บริการเรียก Gab (เก็บเงินค่าขนส่งในประเทศปลายทาง)","title_en":null,"title_cn":null,"address":"บริษัท ทีซีเอที จำกัด 20\/46 หมู่ 1 ต.บางกระสอ อ.เมือง จ.นนทบุรี 11000","province_id":"3","amphur_id":"58","district_code":"120104","zipcode":"11000","image":null,"type":"delivery","latitude":"13.876462","longitude":"100.491274","tel":"0800032233","refund":null,"charge":"0.00","shipping_rate_weight":"0","shipping_rate_cubic":"0","calculate_type":"fixed","max_weight":"9999.00","remark":"","status":"inactive","created_admin":"bellshipping","updated_admin":"Tucky","created_admin_id":"2","updated_admin_id":"51","created_at":"2019-04-22 11:54:18","updated_at":"2019-08-15 10:09:21","access":"all","api":"","delivery":"inactive","max_distance":"250.00","delivery_rate_km":"0.00","delivery_rate_kg":"0.00","delivery_rate_cubic":"0.00","min_price":"0","detail":""},
{"id":"106","title_th":"Flash Express","title_en":null,"title_cn":null,"address":"บริษัท ทีซีเอที จำกัด 20\/46 หมู่ 1","province_id":"3","amphur_id":"58","district_code":"120104","zipcode":"11000","image":null,"type":"other","latitude":"","longitude":"","tel":"0800032233","refund":null,"charge":"59.00","shipping_rate_weight":"0","shipping_rate_cubic":"0","calculate_type":"weight_size","max_weight":"15.00","remark":"","status":"active","created_admin":"bellshipping","updated_admin":"Tucky","created_admin_id":"2","updated_admin_id":"51","created_at":"2019-04-29 09:57:31","updated_at":"2021-01-11 16:53:31","access":"staff_only","api":"","delivery":"inactive","max_distance":"0.00","delivery_rate_km":"0.00","delivery_rate_kg":"0.00","delivery_rate_cubic":"0.00","min_price":"0","detail":""},
{"id":"107","title_th":"จุดรับสินค้า(21) บางกะปิ(แฮปปี้แลนด์ สาย1 )","title_en":null,"title_cn":null,"address":"ที่อยู่ 116 ซอยแฮปปี้แลนด์สาย1","province_id":"1","amphur_id":"6","district_code":"100601","zipcode":"10240","image":"storage\/app\/droppoints\/201209-031436.jpg","type":"droppoint","latitude":"13.770265","longitude":"100.641881","tel":"0897465555","refund":null,"charge":"0.00","shipping_rate_weight":"5","shipping_rate_cubic":"900","calculate_type":"fixed","max_weight":"9999.00","remark":"","status":"active","created_admin":"pukpik","updated_admin":"Tucky","created_admin_id":"178","updated_admin_id":"51","created_at":"2019-06-19 15:10:45","updated_at":"2020-12-09 15:14:36","access":"all","api":"","delivery":"inactive","max_distance":"0.00","delivery_rate_km":"0.00","delivery_rate_kg":"0.00","delivery_rate_cubic":"0.00","min_price":"0","detail":"เปิดให้บริการทุกวัน เวลา 09.00- 24.00น"},
{"id":"110","title_th":"จุดรับสินค้า(01)สาขาพระนั่งเกล้า","title_en":null,"title_cn":null,"address":"38\/5 หมู่3","province_id":"3","amphur_id":"58","district_code":"120109","zipcode":"11000","image":"storage\/app\/droppoints\/190903-105723.jpg","type":"droppoint","latitude":"13.869721","longitude":"100.469655","tel":"0922476000","refund":null,"charge":"0.00","shipping_rate_weight":"0","shipping_rate_cubic":"0","calculate_type":"fixed","max_weight":"9999.00","remark":"ดำเนินการปิดการใช้งานระบบ\r\n\r\nเนื่องจากย้ายไปใช้ชื่อ TCAT Drive thru (พระนั่งเกล้า)","status":"inactive","created_admin":"Tucky","updated_admin":"DIAMOND","created_admin_id":"51","updated_admin_id":"191","created_at":"2019-06-28 14:17:37","updated_at":"2020-07-26 02:48:53","access":"staff_only","api":"","delivery":"inactive","max_distance":"0.00","delivery_rate_km":"0.00","delivery_rate_kg":"0.00","delivery_rate_cubic":"0.00","min_price":"0","detail":"เปิดให้บริการทุกวัน เวลา 09.00-18.00น"},
{"id":"113","title_th":"จุดรับสินค้า(24) สุราษฎร์ธานี","title_en":null,"title_cn":null,"address":"ริช มาร์เก็ต สุราษฎร์ธานี84000, 139\/30 ถนน ชนเกษม","province_id":"67","amphur_id":"884","district_code":"840102","zipcode":"84000","image":"storage\/app\/droppoints\/201212-081930.jpg","type":"droppoint","latitude":"9.134067","longitude":"99.333127","tel":"0630791000","refund":null,"charge":"0.00","shipping_rate_weight":"7","shipping_rate_cubic":"1200","calculate_type":"fixed","max_weight":"9999.00","remark":"9.134024846596967, 99.33322309911024","status":"active","created_admin":"pukpik","updated_admin":"Tucky","created_admin_id":"178","updated_admin_id":"51","created_at":"2019-07-06 09:32:00","updated_at":"2021-01-04 09:17:50","access":"all","api":"","delivery":"inactive","max_distance":"0.00","delivery_rate_km":"0.00","delivery_rate_kg":"0.00","delivery_rate_cubic":"0.00","min_price":"0","detail":"เปิดให้บริการเวลา 09.00-18.00น (จ-ส)"},
{"id":"116","title_th":"จุดรับสินค้า(20) ขอนแก่น (ส่งถึงบ้าน)","title_en":null,"title_cn":null,"address":"561\/19 ถ.หน้าเมือง","province_id":"28","amphur_id":"393","district_code":"400101","zipcode":"40000","image":null,"type":"delivery","latitude":"16.415737","longitude":"102.832576","tel":"0632679000","refund":null,"charge":"0.00","shipping_rate_weight":"9","shipping_rate_cubic":"1600","calculate_type":"fixed","max_weight":"9999.00","remark":"","status":"inactive","created_admin":"bellshipping","updated_admin":"bellshipping","created_admin_id":"2","updated_admin_id":"2","created_at":"2020-01-13 09:54:34","updated_at":"2020-03-21 11:18:45","access":"all","api":"","delivery":"inactive","max_distance":"50.00","delivery_rate_km":"0.00","delivery_rate_kg":"0.00","delivery_rate_cubic":"0.00","min_price":"100","detail":""},
{"id":"117","title_th":"จุดรับสินค้า(25) ปทุมธานี","title_en":null,"title_cn":null,"address":"1\/79 ม.3","province_id":"4","amphur_id":"72","district_code":"130705","zipcode":"12160","image":"storage\/app\/droppoints\/200508-112906.jpg","type":"droppoint","latitude":"14.033810","longitude":"100.524651","tel":"0614170111","refund":null,"charge":"0.00","shipping_rate_weight":"5","shipping_rate_cubic":"900","calculate_type":"fixed","max_weight":"99999.00","remark":"","status":"active","created_admin":"Benyapornshipping","updated_admin":"Tucky","created_admin_id":"178","updated_admin_id":"51","created_at":"2020-03-04 17:38:36","updated_at":"2020-10-16 10:45:34","access":"all","api":"","delivery":"inactive","max_distance":"0.00","delivery_rate_km":"0.00","delivery_rate_kg":"0.00","delivery_rate_cubic":"0.00","min_price":"0","detail":"เปิดทำการทุกวัน เวลา 9.00  -24.00 น."},
{"id":"119","title_th":"จุดรับสินค้า(26) สมุทรปราการ","title_en":null,"title_cn":null,"address":"ถนนแพรกษา ฝั่งตรงข้ามโรบินสัน","province_id":"2","amphur_id":"52","district_code":"110101","zipcode":"10270","image":"storage\/app\/droppoints\/210114-111659.jpg","type":"droppoint","latitude":"13.586333","longitude":"100.608389","tel":"0899776543","refund":null,"charge":"0.00","shipping_rate_weight":"5","shipping_rate_cubic":"900","calculate_type":"fixed","max_weight":"9999.00","remark":"","status":"active","created_admin":"Tucky","updated_admin":"Tucky","created_admin_id":"51","updated_admin_id":"51","created_at":"2020-03-30 11:57:20","updated_at":"2021-01-14 11:16:59","access":"all","api":"","delivery":"inactive","max_distance":"0.00","delivery_rate_km":"0.00","delivery_rate_kg":"0.00","delivery_rate_cubic":"0.00","min_price":"0","detail":"เปิดให้บริการทุกวัน  เวลา 9.00- 24.00 น."},
{"id":"120","title_th":"ฉะเชิงเทรา (ส่งถึงบ้าน อ.เมือง อ.บางปะกง อ.บ้านโพธิ์ อ.บางคล้า อ.บางน้ำเปรี้ยว อ. คลองเขื่อน อ.ราชสาส์น อ.พนมสารคาม)","title_en":null,"title_cn":null,"address":"ฉะเชิงเทรา","province_id":"15","amphur_id":"178","district_code":"240110","zipcode":"24000","image":null,"type":"delivery","latitude":"13.341145","longitude":"100.9601719","tel":"0800032233","refund":null,"charge":"0.00","shipping_rate_weight":"9","shipping_rate_cubic":"1600","calculate_type":"fixed","max_weight":"9999.00","remark":"อ.เมือง\r\nอ.บางปะกง\r\nอ.บ้านโพธิ์\r\nอ.บางคล้า\r\nอ.บางน้ำเปรี้ยว\r\nอ. คลองเขื่อน\r\nอ.ราชสาส์น\r\nอ.พนมสารคาม","status":"active","created_admin":"bellshipping","updated_admin":"Tucky","created_admin_id":"2","updated_admin_id":"51","created_at":"2020-06-08 09:11:59","updated_at":"2020-09-13 12:08:49","access":"all","api":"","delivery":"inactive","max_distance":"50.00","delivery_rate_km":"0.00","delivery_rate_kg":"0.00","delivery_rate_cubic":"0.00","min_price":"100","detail":"ฉะเชิงเทรา \r\nเฉพาะ อำเภอ เมือง  อำเภอ บ้านโพธิ์  อำเภอ บางประกง เท่านั้นค่ะ เริ่มบริการตั้งแต่ :  วันจันทร์ที่ 3 ธันวาคม 2561 เป็นต้นไป"},
{"id":"122","title_th":"โปรส่งฟรี รถบริษัท(ภายใน1-2วัน)","title_en":null,"title_cn":null,"address":"101","province_id":"3","amphur_id":"58","district_code":"120102","zipcode":"11000","image":null,"type":"delivery","latitude":"13.876462","longitude":"100.491274","tel":"0800000000","refund":null,"charge":"0.00","shipping_rate_weight":"0","shipping_rate_cubic":"0","calculate_type":"fixed","max_weight":"9999.00","remark":"โปรฟรี ช่วงปิดโกดังรับสินค้าเอง","status":"inactive","created_admin":"DIAMOND","updated_admin":"Tucky","created_admin_id":"191","updated_admin_id":"51","created_at":"2020-06-24 00:47:53","updated_at":"2021-01-22 09:53:49","access":"staff_only","api":"","delivery":"inactive","max_distance":"200.00","delivery_rate_km":"0.00","delivery_rate_kg":"0.00","delivery_rate_cubic":"0.00","min_price":"0","detail":""},
{"id":"125","title_th":"จุดรับสินค้า Sorbet(ชำระบิลล่วงหน้า1วัน)","title_en":null,"title_cn":null,"address":"Sorbet","province_id":"3","amphur_id":"58","district_code":"120104","zipcode":"11000","image":null,"type":"droppoint","latitude":"","longitude":"","tel":"0819080777","refund":null,"charge":"0.00","shipping_rate_weight":"0","shipping_rate_cubic":"0","calculate_type":"fixed","max_weight":"999.00","remark":"","status":"inactive","created_admin":"DIAMOND","updated_admin":"DIAMOND","created_admin_id":"191","updated_admin_id":"191","created_at":"2020-06-27 16:13:56","updated_at":"2020-07-26 02:44:53","access":"staff_only","api":"","delivery":"inactive","max_distance":"0.00","delivery_rate_km":"0.00","delivery_rate_kg":"0.00","delivery_rate_cubic":"0.00","min_price":"0","detail":"ปิดการเปิดบิล : 25\/07\/2563\r\n\r\nวันสุดท้ายการเข้ารับ : 26\/07\/2563"},
{"id":"128","title_th":"TCAT Drive Thru (พระนั่งเกล้า)","title_en":null,"title_cn":null,"address":"โกดังพระนั่งเกล้า","province_id":"3","amphur_id":"58","district_code":"120109","zipcode":"11000","image":null,"type":"droppoint","latitude":"13.869721","longitude":"100.469655","tel":"0922476000","refund":null,"charge":"0.00","shipping_rate_weight":"0","shipping_rate_cubic":"0","calculate_type":"fixed","max_weight":"9999.00","remark":"เริ่มเปิดให้บริการ : 29\/07\/2563 เป็นต้นไป\r\n\r\nเปิดระบบให้ออกบิล : 26\/07\/2563","status":"active","created_admin":"DIAMOND","updated_admin":"Tucky","created_admin_id":"191","updated_admin_id":"51","created_at":"2020-07-25 02:34:22","updated_at":"2020-09-23 11:47:09","access":"all","api":"","delivery":"inactive","max_distance":"0.00","delivery_rate_km":"0.00","delivery_rate_kg":"0.00","delivery_rate_cubic":"0.00","min_price":"0","detail":"TCAT Drive thru (สาขาพระนั่งเกล้า) เปิดทำการ 08.00 - 24.00 น.\r\nรอบ 1 : ชำระก่อน 24.00 น. รับสินค้าได้วันถัดไป ตั้งแต่ 09.00 น.\r\nรอบ 2 : ชำระก่อน 12.00 น. รับสินค้าได้ ตั้งแต่ 15.00 น."},
{"id":"130","title_th":"รถบริษัท จ.สุพรรณบุรี (เฉพาะ อำเภอ เมือง , อำเภอ บางปลาม้า , อำเภอ สองพี่น้อง)","title_en":null,"title_cn":null,"address":"101","province_id":"3","amphur_id":"58","district_code":"120102","zipcode":"11000","image":null,"type":"delivery","latitude":"13.876462","longitude":"100.491274","tel":"0800023636","refund":null,"charge":"0.00","shipping_rate_weight":"8","shipping_rate_cubic":"1200","calculate_type":"fixed","max_weight":"9999.00","remark":"เฉพาะ อำเภอ เมือง , อำเภอ บางปลาม้า , อำเภอ สองพี่น้อง\r\nขั้นต่ำ 100 บาทต่อบิล","status":"active","created_admin":"Tucky","updated_admin":"Tucky","created_admin_id":"51","updated_admin_id":"51","created_at":"2020-08-10 08:24:12","updated_at":"2021-01-17 16:24:08","access":"all","api":"","delivery":"inactive","max_distance":"250.00","delivery_rate_km":"0.00","delivery_rate_kg":"0.00","delivery_rate_cubic":"0.00","min_price":"100","detail":""},
{"id":"131","title_th":"จุดรับสินค้า(27) อ่อนนุช","title_en":null,"title_cn":null,"address":"1917 ถ.อ่อนนุช","province_id":"1","amphur_id":"34","district_code":"103401","zipcode":"10250","image":"storage\/app\/droppoints\/201102-083434.jpg","type":"droppoint","latitude":"13.710917","longitude":"100.634806","tel":"0926602777","refund":null,"charge":"0.00","shipping_rate_weight":"5","shipping_rate_cubic":"900","calculate_type":"fixed","max_weight":"9999.00","remark":"","status":"active","created_admin":"Tucky","updated_admin":"Tucky","created_admin_id":"51","updated_admin_id":"51","created_at":"2020-10-28 13:01:32","updated_at":"2020-12-01 10:10:54","access":"all","api":"","delivery":"inactive","max_distance":"0.00","delivery_rate_km":"0.00","delivery_rate_kg":"0.00","delivery_rate_cubic":"0.00","min_price":"0","detail":"เปิดทำการทุกวัน 9.00 -  24.00 น."},
{"id":"132","title_th":"J&T Express","title_en":null,"title_cn":null,"address":"โกดังพระนั่งเกล้า","province_id":"3","amphur_id":"58","district_code":"120109","zipcode":"11000","image":null,"type":"other","latitude":"13.869721","longitude":"100.469655","tel":"0922476000","refund":null,"charge":"99.00","shipping_rate_weight":"0","shipping_rate_cubic":"0","calculate_type":"weight_size","max_weight":"999.00","remark":"","status":"active","created_admin":"bellshipping","updated_admin":"Tucky","created_admin_id":"2","updated_admin_id":"51","created_at":"2020-11-16 09:47:02","updated_at":"2020-12-13 08:05:17","access":"all","api":"","delivery":"inactive","max_distance":"0.00","delivery_rate_km":"0.00","delivery_rate_kg":"0.00","delivery_rate_cubic":"0.00","min_price":"0","detail":""},
{"id":"135","title_th":"จุดรับสินค้า(28) พิษณุโลก","title_en":null,"title_cn":null,"address":"258\/48 ถ.มิตรภาพ ซอยพระองค์ขาว 24","province_id":"52","amphur_id":"739","district_code":"650101","zipcode":"65000","image":"storage\/app\/droppoints\/201210-082206.jpg","type":"droppoint","latitude":"16.819854","longitude":"100.282559","tel":"0883339292","refund":null,"charge":"0.00","shipping_rate_weight":"7","shipping_rate_cubic":"1200","calculate_type":"fixed","max_weight":"9999.00","remark":"","status":"active","created_admin":"Tucky","updated_admin":"Tucky","created_admin_id":"51","updated_admin_id":"51","created_at":"2020-12-10 08:22:07","updated_at":"2021-01-04 09:18:15","access":"all","api":"","delivery":"inactive","max_distance":"0.00","delivery_rate_km":"0.00","delivery_rate_kg":"0.00","delivery_rate_cubic":"0.00","min_price":"0","detail":"เปิดทำการเวลา 09.00 - 18.00 น. (จันทร์ - เสาร์)\r\nเปิดให้บริการตั้งแต่ 11 ธันวาคม 2563 เป็นต้นไป"},
{"id":"137","title_th":"TCAT Express ช่วงค่ำ 20.00 - 23.00 น. เฉพาะพื้นที่ กรุงเทพฯ นนทบุรี ปทุมธานี","title_en":null,"title_cn":null,"address":"เลขที่20\/46 ซ.เลี่ยงเมืองนนทบุรี15แยก10 ถ.เลื่ยงเมืองนนทบุรี","province_id":"3","amphur_id":"58","district_code":"120102","zipcode":"11000","image":null,"type":"other","latitude":"13.870470698410513","longitude":"100.47365712574644","tel":"0800002545","refund":null,"charge":"0.00","shipping_rate_weight":"0","shipping_rate_cubic":"0","calculate_type":"area","max_weight":"9999.00","remark":"","status":"active","created_admin":"Tucky","updated_admin":"bellshipping","created_admin_id":"51","updated_admin_id":"2","created_at":"2021-01-06 17:36:35","updated_at":"2021-01-06 17:52:49","access":"all","api":"","delivery":"inactive","max_distance":"70.00","delivery_rate_km":"0.00","delivery_rate_kg":"0.00","delivery_rate_cubic":"0.00","min_price":"100","detail":"ชำระบิลภายใน 18.00 น."}
]
}
]
