[
{"type":"header","version":"5.0.3","comment":"Export to JSON plugin for PHPMyAdmin"},
{"type":"database","name":"tcatcargo"},
{"type":"table","name":"thai_shipping_weight_prices","database":"tcatcargo","data":
[
{"id":"1","created_at":"2016-12-06 04:20:52","updated_at":"2016-12-08 03:49:46","title":"0-1 กก.","min_weight":"0.01","max_weight":"1.00","price":"25.00","created_admin":null,"updated_admin":null,"thai_shipping_method_id":"1","created_admin_id":null,"updated_admin_id":null},
{"id":"3","created_at":"2016-12-06 04:43:20","updated_at":"2016-12-08 03:49:35","title":"1-2 กก.","min_weight":"1.01","max_weight":"2.00","price":"45.00","created_admin":null,"updated_admin":null,"thai_shipping_method_id":"1","created_admin_id":null,"updated_admin_id":null},
{"id":"4","created_at":"2016-12-06 04:43:31","updated_at":"2016-12-08 03:49:25","title":"2-3 กก.","min_weight":"2.01","max_weight":"3.00","price":"50.00","created_admin":null,"updated_admin":null,"thai_shipping_method_id":"1","created_admin_id":null,"updated_admin_id":null},
{"id":"5","created_at":"2016-12-06 04:44:02","updated_at":"2016-12-08 03:50:00","title":"3-4 กก.","min_weight":"3.01","max_weight":"4.00","price":"65.00","created_admin":null,"updated_admin":null,"thai_shipping_method_id":"1","created_admin_id":null,"updated_admin_id":null},
{"id":"6","created_at":"2016-12-06 04:44:12","updated_at":"2016-12-08 03:50:11","title":"4-5 กก.","min_weight":"4.01","max_weight":"5.00","price":"80.00","created_admin":null,"updated_admin":null,"thai_shipping_method_id":"1","created_admin_id":null,"updated_admin_id":null},
{"id":"7","created_at":"2016-12-06 04:44:42","updated_at":"2019-01-16 02:24:55","title":"5-6 กก.","min_weight":"5.01","max_weight":"6.00","price":"105.00","created_admin":null,"updated_admin":null,"thai_shipping_method_id":"1","created_admin_id":null,"updated_admin_id":null},
{"id":"8","created_at":"2016-12-06 04:45:02","updated_at":"2019-01-16 02:25:09","title":"6-7 กก.","min_weight":"6.01","max_weight":"7.00","price":"120.00","created_admin":null,"updated_admin":null,"thai_shipping_method_id":"1","created_admin_id":null,"updated_admin_id":null},
{"id":"10","created_at":"2016-12-06 04:45:52","updated_at":"2019-01-16 02:25:36","title":"7-8 กก.","min_weight":"7.01","max_weight":"8.00","price":"140.00","created_admin":null,"updated_admin":null,"thai_shipping_method_id":"1","created_admin_id":null,"updated_admin_id":null},
{"id":"11","created_at":"2016-12-06 04:46:49","updated_at":"2016-12-08 03:52:23","title":"8-9 กก.","min_weight":"8.01","max_weight":"9.00","price":"140.00","created_admin":null,"updated_admin":null,"thai_shipping_method_id":"1","created_admin_id":null,"updated_admin_id":null},
{"id":"12","created_at":"2016-12-06 04:47:08","updated_at":"2019-01-16 02:26:53","title":"10-11 กก.","min_weight":"10.01","max_weight":"11.00","price":"187.00","created_admin":null,"updated_admin":null,"thai_shipping_method_id":"1","created_admin_id":null,"updated_admin_id":null},
{"id":"13","created_at":"2016-12-06 04:48:27","updated_at":"2019-01-16 02:27:12","title":"11-12 กก.","min_weight":"11.01","max_weight":"12.00","price":"203.00","created_admin":null,"updated_admin":null,"thai_shipping_method_id":"1","created_admin_id":null,"updated_admin_id":null},
{"id":"14","created_at":"2016-12-06 04:48:42","updated_at":"2019-01-16 02:27:23","title":"12-13 กก.","min_weight":"12.01","max_weight":"13.00","price":"220.00","created_admin":null,"updated_admin":null,"thai_shipping_method_id":"1","created_admin_id":null,"updated_admin_id":null},
{"id":"15","created_at":"2016-12-06 04:48:57","updated_at":"2019-01-16 02:27:58","title":"13-14 กก.","min_weight":"13.01","max_weight":"14.00","price":"236.00","created_admin":null,"updated_admin":null,"thai_shipping_method_id":"1","created_admin_id":null,"updated_admin_id":null},
{"id":"16","created_at":"2016-12-06 04:49:15","updated_at":"2019-01-16 02:28:12","title":"14-15 กก.","min_weight":"14.01","max_weight":"15.00","price":"253.00","created_admin":null,"updated_admin":null,"thai_shipping_method_id":"1","created_admin_id":null,"updated_admin_id":null},
{"id":"17","created_at":"2016-12-06 04:49:38","updated_at":"2019-01-16 02:28:49","title":"15-16 กก.","min_weight":"15.01","max_weight":"16.00","price":"269.00","created_admin":null,"updated_admin":null,"thai_shipping_method_id":"1","created_admin_id":null,"updated_admin_id":null},
{"id":"18","created_at":"2016-12-06 04:50:07","updated_at":"2019-01-16 02:29:02","title":"16-17 กก.","min_weight":"16.01","max_weight":"17.00","price":"286.00","created_admin":null,"updated_admin":null,"thai_shipping_method_id":"1","created_admin_id":null,"updated_admin_id":null},
{"id":"19","created_at":"2016-12-06 04:50:22","updated_at":"2019-01-16 02:29:22","title":"17-18 กก.","min_weight":"17.01","max_weight":"18.00","price":"302.00","created_admin":null,"updated_admin":null,"thai_shipping_method_id":"1","created_admin_id":null,"updated_admin_id":null},
{"id":"20","created_at":"2016-12-06 04:50:49","updated_at":"2019-01-16 02:29:39","title":"18-19 กก.","min_weight":"18.01","max_weight":"19.00","price":"319.00","created_admin":null,"updated_admin":null,"thai_shipping_method_id":"1","created_admin_id":null,"updated_admin_id":null},
{"id":"21","created_at":"2016-12-06 04:51:22","updated_at":"2019-01-16 02:29:56","title":"19-20 กก.","min_weight":"19.01","max_weight":"20.00","price":"335.00","created_admin":null,"updated_admin":null,"thai_shipping_method_id":"1","created_admin_id":null,"updated_admin_id":null},
{"id":"22","created_at":"2016-12-06 04:58:45","updated_at":"2019-01-16 02:36:02","title":"0.5-1 กก.","min_weight":"0.51","max_weight":"1.00","price":"74.00","created_admin":null,"updated_admin":null,"thai_shipping_method_id":"2","created_admin_id":null,"updated_admin_id":null},
{"id":"23","created_at":"2016-12-06 04:59:23","updated_at":"2019-01-16 02:36:17","title":"1-2 กก.","min_weight":"1.01","max_weight":"2.00","price":"107.00","created_admin":null,"updated_admin":null,"thai_shipping_method_id":"2","created_admin_id":null,"updated_admin_id":null},
{"id":"24","created_at":"2016-12-06 04:59:42","updated_at":"2017-06-23 07:01:36","title":"2-3 กก.","min_weight":"2.01","max_weight":"3.00","price":"157.00","created_admin":null,"updated_admin":null,"thai_shipping_method_id":"2","created_admin_id":null,"updated_admin_id":null},
{"id":"25","created_at":"2016-12-06 04:59:58","updated_at":"2019-01-16 02:38:18","title":"3-4 กก.","min_weight":"3.01","max_weight":"4.00","price":"186.00","created_admin":null,"updated_admin":null,"thai_shipping_method_id":"2","created_admin_id":null,"updated_admin_id":null},
{"id":"26","created_at":"2016-12-06 05:00:27","updated_at":"2019-01-16 02:38:35","title":"4-5 กก.","min_weight":"4.01","max_weight":"5.00","price":"265.00","created_admin":null,"updated_admin":null,"thai_shipping_method_id":"2","created_admin_id":null,"updated_admin_id":null},
{"id":"27","created_at":"2016-12-06 05:00:42","updated_at":"2019-01-16 02:40:11","title":"5-6 กก.","min_weight":"5.01","max_weight":"6.00","price":"280.00","created_admin":null,"updated_admin":null,"thai_shipping_method_id":"2","created_admin_id":null,"updated_admin_id":null},
{"id":"28","created_at":"2016-12-06 05:01:01","updated_at":"2019-01-16 02:40:50","title":"6-7 กก.","min_weight":"6.01","max_weight":"7.00","price":"333.00","created_admin":null,"updated_admin":null,"thai_shipping_method_id":"2","created_admin_id":null,"updated_admin_id":null},
{"id":"29","created_at":"2016-12-06 05:01:21","updated_at":"2019-01-16 02:41:14","title":"7-8 กก.","min_weight":"7.01","max_weight":"8.00","price":"386.00","created_admin":null,"updated_admin":null,"thai_shipping_method_id":"2","created_admin_id":null,"updated_admin_id":null},
{"id":"30","created_at":"2016-12-06 05:02:03","updated_at":"2019-01-16 02:41:53","title":"8-9 กก.","min_weight":"8.01","max_weight":"9.00","price":"448.00","created_admin":null,"updated_admin":null,"thai_shipping_method_id":"2","created_admin_id":null,"updated_admin_id":null},
{"id":"31","created_at":"2016-12-06 05:02:43","updated_at":"2019-01-16 02:42:19","title":"9-10 กก.","min_weight":"9.01","max_weight":"10.00","price":"511.00","created_admin":null,"updated_admin":null,"thai_shipping_method_id":"2","created_admin_id":null,"updated_admin_id":null},
{"id":"32","created_at":"2016-12-06 05:03:00","updated_at":"2019-01-16 02:42:43","title":"10-11 กก.","min_weight":"10.01","max_weight":"11.00","price":"527.00","created_admin":null,"updated_admin":null,"thai_shipping_method_id":"2","created_admin_id":null,"updated_admin_id":null},
{"id":"33","created_at":"2016-12-06 05:03:30","updated_at":"2019-01-16 02:43:06","title":"11-12 กก.","min_weight":"11.01","max_weight":"12.00","price":"543.00","created_admin":null,"updated_admin":null,"thai_shipping_method_id":"2","created_admin_id":null,"updated_admin_id":null},
{"id":"34","created_at":"2016-12-06 05:03:44","updated_at":"2019-01-16 02:43:28","title":"12-13 กก.","min_weight":"12.01","max_weight":"13.00","price":"559.00","created_admin":null,"updated_admin":null,"thai_shipping_method_id":"2","created_admin_id":null,"updated_admin_id":null},
{"id":"35","created_at":"2016-12-06 05:04:02","updated_at":"2019-01-16 02:43:48","title":"13-14 กก.","min_weight":"13.01","max_weight":"14.00","price":"575.00","created_admin":null,"updated_admin":null,"thai_shipping_method_id":"2","created_admin_id":null,"updated_admin_id":null},
{"id":"36","created_at":"2016-12-06 05:04:24","updated_at":"2019-01-16 02:44:11","title":"14-15 กก.","min_weight":"14.01","max_weight":"15.00","price":"590.00","created_admin":null,"updated_admin":null,"thai_shipping_method_id":"2","created_admin_id":null,"updated_admin_id":null},
{"id":"37","created_at":"2016-12-06 05:04:54","updated_at":"2019-01-16 02:44:35","title":"15-16 กก.","min_weight":"15.01","max_weight":"16.00","price":"605.00","created_admin":null,"updated_admin":null,"thai_shipping_method_id":"2","created_admin_id":null,"updated_admin_id":null},
{"id":"38","created_at":"2016-12-06 05:05:08","updated_at":"2019-01-16 02:45:36","title":"16-17 กก.","min_weight":"16.01","max_weight":"17.00","price":"621.00","created_admin":null,"updated_admin":null,"thai_shipping_method_id":"2","created_admin_id":null,"updated_admin_id":null},
{"id":"39","created_at":"2016-12-06 05:05:30","updated_at":"2019-01-16 02:46:02","title":"17-18 กก.","min_weight":"17.01","max_weight":"18.00","price":"637.00","created_admin":null,"updated_admin":null,"thai_shipping_method_id":"2","created_admin_id":null,"updated_admin_id":null},
{"id":"40","created_at":"2016-12-06 05:06:05","updated_at":"2019-01-16 02:46:20","title":"18-19 กก.","min_weight":"18.01","max_weight":"19.00","price":"653.00","created_admin":null,"updated_admin":null,"thai_shipping_method_id":"2","created_admin_id":null,"updated_admin_id":null},
{"id":"41","created_at":"2016-12-06 05:06:20","updated_at":"2019-01-16 02:46:44","title":"19-20 กก.","min_weight":"19.01","max_weight":"20.00","price":"669.00","created_admin":null,"updated_admin":null,"thai_shipping_method_id":"2","created_admin_id":null,"updated_admin_id":null},
{"id":"42","created_at":"2017-04-25 10:29:48","updated_at":"2019-01-16 02:25:51","title":"9-10 กก.","min_weight":"9.01","max_weight":"10.00","price":"170.00","created_admin":null,"updated_admin":null,"thai_shipping_method_id":"1","created_admin_id":null,"updated_admin_id":null},
{"id":"48","created_at":"2017-04-25 10:30:15","updated_at":"2017-04-25 10:30:15","title":"0-1 กก.","min_weight":"0.01","max_weight":"1.00","price":"30.00","created_admin":null,"updated_admin":null,"thai_shipping_method_id":"3","created_admin_id":null,"updated_admin_id":null},
{"id":"49","created_at":"2017-04-25 10:30:25","updated_at":"2017-04-25 10:30:25","title":"1-2 กก.","min_weight":"1.01","max_weight":"2.00","price":"40.00","created_admin":null,"updated_admin":null,"thai_shipping_method_id":"3","created_admin_id":null,"updated_admin_id":null},
{"id":"50","created_at":"2017-04-25 10:39:05","updated_at":"2017-04-25 10:39:05","title":"2-3 กก.","min_weight":"2.01","max_weight":"3.00","price":"50.00","created_admin":null,"updated_admin":null,"thai_shipping_method_id":"3","created_admin_id":null,"updated_admin_id":null},
{"id":"51","created_at":"2017-04-25 10:39:20","updated_at":"2017-04-25 10:39:20","title":"3-4 กก.","min_weight":"3.01","max_weight":"4.00","price":"110.00","created_admin":null,"updated_admin":null,"thai_shipping_method_id":"3","created_admin_id":null,"updated_admin_id":null},
{"id":"52","created_at":"2017-04-25 10:39:28","updated_at":"2017-04-25 10:39:28","title":"4-5 กก.","min_weight":"4.01","max_weight":"5.00","price":"170.00","created_admin":null,"updated_admin":null,"thai_shipping_method_id":"3","created_admin_id":null,"updated_admin_id":null},
{"id":"54","created_at":"2017-05-09 02:26:33","updated_at":"2019-01-16 02:33:03","title":"น้ำหนักสินค้า ค่าส่ง (บาท) 0 - 20 กรัม","min_weight":"0.01","max_weight":"0.02","price":"28.00","created_admin":null,"updated_admin":null,"thai_shipping_method_id":"24","created_admin_id":null,"updated_admin_id":null},
{"id":"55","created_at":"2017-05-09 02:28:42","updated_at":"2019-01-16 02:33:10","title":"20 - 100 กรัม","min_weight":"0.03","max_weight":"0.10","price":"33.00","created_admin":null,"updated_admin":null,"thai_shipping_method_id":"24","created_admin_id":null,"updated_admin_id":null},
{"id":"56","created_at":"2017-05-09 02:29:25","updated_at":"2019-01-16 02:33:19","title":"100 - 250 กรัม","min_weight":"0.11","max_weight":"0.25","price":"39.00","created_admin":null,"updated_admin":null,"thai_shipping_method_id":"24","created_admin_id":null,"updated_admin_id":null},
{"id":"58","created_at":"2017-05-09 02:30:02","updated_at":"2019-01-16 02:33:24","title":"250 - 500 กรัม","min_weight":"0.26","max_weight":"0.50","price":"44.00","created_admin":null,"updated_admin":null,"thai_shipping_method_id":"24","created_admin_id":null,"updated_admin_id":null},
{"id":"60","created_at":"2017-05-09 02:30:32","updated_at":"2019-01-16 02:33:42","title":"500 - 1000 กรัม","min_weight":"0.51","max_weight":"1.00","price":"55.00","created_admin":null,"updated_admin":null,"thai_shipping_method_id":"24","created_admin_id":null,"updated_admin_id":null},
{"id":"61","created_at":"2017-05-09 02:31:07","updated_at":"2019-01-16 02:33:51","title":"1000 - 1500 กรัม","min_weight":"1.01","max_weight":"1.50","price":"62.00","created_admin":null,"updated_admin":null,"thai_shipping_method_id":"24","created_admin_id":null,"updated_admin_id":null},
{"id":"63","created_at":"2017-05-09 02:31:37","updated_at":"2019-01-16 02:33:57","title":"1500 - 2000 กรัม","min_weight":"1.51","max_weight":"2.00","price":"77.00","created_admin":null,"updated_admin":null,"thai_shipping_method_id":"24","created_admin_id":null,"updated_admin_id":null},
{"id":"65","created_at":"2017-06-23 06:47:09","updated_at":"2019-01-16 02:35:42","title":"0-0.5 กก.","min_weight":"0.00","max_weight":"0.50","price":"58.00","created_admin":null,"updated_admin":null,"thai_shipping_method_id":"2","created_admin_id":null,"updated_admin_id":null}
]
}
]
